%!PS-Adobe-2.0 EPSF-2.0
%%BoundingBox:  0 0 559 737
%%Title: figures/ranking_klambda_rank_0001_to_0025_HH_H_kl.eps: c1
%%Creator: ROOT Version 6.24/06
%%CreationDate: Tue Jun 28 14:38:18 2022
%%DocumentNeededResources: ProcSet (FontSetInit)
%%EndComments
%%BeginProlog
80 dict begin
/s {stroke} def /l {lineto} def /m {moveto} def /t {translate} def
/r {rotate} def /rl {roll}  def /R {repeat} def
/d {rlineto} def /rm {rmoveto} def /gr {grestore} def /f {eofill} def
/c {setrgbcolor} def /black {0 setgray} def /sd {setdash} def
/cl {closepath} def /sf {scalefont setfont} def /lw {setlinewidth} def
/box {m dup 0 exch d exch 0 d 0 exch neg d cl} def
/NC{systemdict begin initclip end}def/C{NC box clip newpath}def
/bl {box s} def /bf {gsave box gsave f grestore 1 lw [] 0 sd s grestore} def /Y { 0 exch d} def /X { 0 d} def 
/K {{pop pop 0 moveto} exch kshow} bind def
/ita {/ang 15 def gsave [1 0 ang dup sin exch cos div 1 0 0] concat} def 
/mp {newpath /y exch def /x exch def} def
/side {[w .77 mul w .23 mul] .385 w mul sd w 0 l currentpoint t -144 r} def
/mr {mp x y w2 0 360 arc} def /m24 {mr s} def /m20 {mr f} def
/mb {mp x y w2 add m w2 neg 0 d 0 w neg d w 0 d 0 w d cl} def
/mt {mp x y w2 add m w2 neg w neg d w 0 d cl} def
/w4 {w 4 div} def
/w6 {w 6 div} def
/w8 {w 8 div} def
/m21 {mb f} def /m25 {mb s} def /m22 {mt f} def /m26{mt s} def
/m23 {mp x y w2 sub m w2 w d w neg 0 d cl f} def
/m27 {mp x y w2 add m w3 neg w2 neg d w3 w2 neg d w3 w2 d cl s} def
/m28 {mp x w2 sub y w2 sub w3 add m w3 0 d  0 w3 neg d w3 0 d 0 w3 d w3 0 d  0 w3 d w3 neg 0 d 0 w3 d w3 neg 0 d 0 w3 neg d w3 neg 0 d cl s } def
/m29 {mp gsave x w2 sub y w2 add w3 sub m currentpoint t 4 {side} repeat cl fill gr} def
/m30 {mp gsave x w2 sub y w2 add w3 sub m currentpoint t 4 {side} repeat cl s gr} def
/m31 {mp x y w2 sub m 0 w d x w2 sub y m w 0 d x w2 .707 mul sub y w2 .707 mul add m w 1.44 div w 1.44 div neg d x w2 .707 mul sub y w2 .707 mul sub m w 1.44 div w 1.44 div d s} def
/m32 {mp x y w2 sub m w2 w d w neg 0 d cl s} def
/m33 {mp x y w2 add m w3 neg w2 neg d w3 w2 neg d w3 w2 d cl f} def
/m34 {mp x w2 sub y w2 sub w3 add m w3 0 d  0 w3 neg d w3 0 d 0 w3 d w3 0 d  0 w3 d w3 neg 0 d 0 w3 d w3 neg 0 d 0 w3 neg d w3 neg 0 d cl f } def
/m35 {mp x y w2 add m w2 neg w2 neg d w2 w2 neg d w2 w2 d w2 neg w2 d x y w2 sub m 0 w d x w2 sub y m w 0 d s} def
/m36 {mb x w2 sub y w2 add m w w neg d x w2 sub y w2 sub m w w d s} def
/m37 {mp x y m w4 neg w2 d w4 neg w2 neg d w2 0 d  w4 neg w2 neg d w2 0 d w4 neg w2 d w2 0 d w4 neg w2 d w4 neg w2 neg d cl s} def
/m38 {mp x w4 sub y w2 add m w4 neg w4 neg d 0 w2 neg d w4 w4 neg d w2 0 d w4 w4 d 0 w2 d w4 neg w4 d w2 neg 0 d x y w2 sub m 0 w d x w2 sub y m w 0 d cl s} def
/m39 {mp x y m w4 neg w2 d w4 neg w2 neg d w2 0 d  w4 neg w2 neg d w2 0 d w4 neg w2 d w2 0 d w4 neg w2 d w4 neg w2 neg d cl f} def
/m40 {mp x y m w4 w2 d w4 w4 neg d w2 neg w4 neg d w2 w4 neg d w4 neg w4 neg d w4 neg w2 d w4 neg w2 neg d w4 neg w4 d w2 w4 d w2 neg w4 d w4 w4 d w4 w2 neg d cl s} def
/m41 {mp x y m w4 w2 d w4 w4 neg d w2 neg w4 neg d w2 w4 neg d w4 neg w4 neg d w4 neg w2 d w4 neg w2 neg d w4 neg w4 d w2 w4 d w2 neg w4 d w4 w4 d w4 w2 neg d cl f} def
/m42 {mp x y w2 add m w8 neg w2 -3 4 div mul d w2 -3 4 div mul w8 neg d w2 3 4 div mul w8 neg d w8 w2 -3 4 div mul d w8 w2 3 4 div mul d w2 3 4 div mul w8 d w2 -3 4 div mul w8 d w8 neg w2 3 4 div mul d cl s} def
/m43 {mp x y w2 add m w8 neg w2 -3 4 div mul d w2 -3 4 div mul w8 neg d w2 3 4 div mul w8 neg d w8 w2 -3 4 div mul d w8 w2 3 4 div mul d w2 3 4 div mul w8 d w2 -3 4 div mul w8 d w8 neg w2 3 4 div mul d cl f} def
/m44 {mp x y m w6 neg w2 d w2 2 3 div mul 0 d w6 neg w2 neg d w2 w6 d 0 w2 -2 3 div mul d w2 neg w6 d w6 w2 neg d w2 -2 3 div mul 0 d w6 w2 d w2 neg w6 neg d 0 w2 2 3 div mul d w2 w6 neg d cl s} def
/m45 {mp x y m w6 neg w2 d w2 2 3 div mul 0 d w6 neg w2 neg d w2 w6 d 0 w2 -2 3 div mul d w2 neg w6 d w6 w2 neg d w2 -2 3 div mul 0 d w6 w2 d w2 neg w6 neg d 0 w2 2 3 div mul d w2 w6 neg d cl f} def
/m46 {mp x y w4 add m w4 neg w4 d w4 neg w4 neg d  w4 w4 neg d w4 neg w4 neg d w4 w4 neg d w4 w4 d w4 w4 neg d w4 w4 d w4 neg w4 d w4 w4 d w4 neg w4 d w4 neg w4 neg d cl s} def
/m47 {mp x y w4 add m w4 neg w4 d w4 neg w4 neg d w4 w4 neg d w4 neg w4 neg d  w4 w4 neg d w4 w4 d w4 w4 neg d w4 w4 d w4 neg w4 d w4 w4 d w4 neg w4 d w4 neg w4 neg d cl f} def
/m48 {mp x y w4 add m w4 neg w4 d w4 neg w4 neg d w4 w4 neg d  w4 neg w4 neg d w4 w4 neg d w4 w4 d w4 w4 neg d w4 w4 d w4 neg w4 d w4 w4 d w4 neg w4 d w4 neg w4 neg d  w4 w4 neg d w4 neg w4 neg d w4 neg w4 d w4 w4 d cl f} def
/m49 {mp x w2 sub w3 add y w2 sub w3 add m  0 w3 neg d w3 0 d 0 w3 d w3 0 d 0 w3 d w3 neg 0 d 0 w3 d w3 neg 0 d 0 w3 neg d w3 neg 0 d 0 w3 neg d w3 0 d 0 w3 d w3 0 d 0 w3 neg d w3 neg 0 d cl f } def
/m2 {mp x y w2 sub m 0 w d x w2 sub y m w 0 d s} def
/m5 {mp x w2 .707 mul sub y w2 .707 mul sub m w 1.44 div w 1.44 div d x w2 .707 mul sub y w2 .707 mul add m w 1.44 div w 1.44 div neg d s} def
%%IncludeResource: ProcSet (FontSetInit)
%%IncludeResource: font Times-Roman
%%IncludeResource: font Times-Italic
%%IncludeResource: font Times-Bold
%%IncludeResource: font Times-BoldItalic
%%IncludeResource: font Helvetica
%%IncludeResource: font Helvetica-Oblique
%%IncludeResource: font Helvetica-Bold
%%IncludeResource: font Helvetica-BoldOblique
%%IncludeResource: font Courier
%%IncludeResource: font Courier-Oblique
%%IncludeResource: font Courier-Bold
%%IncludeResource: font Courier-BoldOblique
%%IncludeResource: font Symbol
%%IncludeResource: font ZapfDingbats
/reEncode {exch findfont dup length dict begin {1 index /FID eq  {pop pop} {def} ifelse } forall /Encoding exch def currentdict end dup /FontName get exch definefont pop } def [/Times-Bold /Times-Italic /Times-BoldItalic /Helvetica /Helvetica-Oblique
 /Helvetica-Bold /Helvetica-BoldOblique /Courier /Courier-Oblique /Courier-Bold /Courier-BoldOblique /Times-Roman /AvantGarde-Book /AvantGarde-BookOblique /AvantGarde-Demi /AvantGarde-DemiOblique /Bookman-Demi /Bookman-DemiItalic /Bookman-Light
 /Bookman-LightItalic /Helvetica-Narrow /Helvetica-Narrow-Bold /Helvetica-Narrow-BoldOblique /Helvetica-Narrow-Oblique /NewCenturySchlbk-Roman /NewCenturySchlbk-Bold /NewCenturySchlbk-BoldItalic /NewCenturySchlbk-Italic /Palatino-Bold
 /Palatino-BoldItalic /Palatino-Italic /Palatino-Roman ] {ISOLatin1Encoding reEncode } forall
%%EndProlog
%%BeginSetup
%%EndSetup
newpath  gsave  .25 .25 scale  gsave  0 0 t black[  ] 0 sd 3 lw 1 1 1 c 2236 2948 0 0 bf black 1 1 1 c 2236 2948 0 0 bf black 1 1 1 c 1007 2418 1118 265 bf black 1007 2418 1118 265 bl 1 1 1 c 1118 265 m 1007 X s 1128 305 m -40 Y s 1153 285 m -20 Y s
 1178 285 m -20 Y s 1202 285 m -20 Y s 1227 285 m -20 Y s 1252 305 m -40 Y s 1276 285 m -20 Y s 1301 285 m -20 Y s 1326 285 m -20 Y s 1350 285 m -20 Y s 1375 305 m -40 Y s 1400 285 m -20 Y s 1424 285 m -20 Y s 1449 285 m -20 Y s 1474 285 m -20 Y s
 1498 305 m -40 Y s 1523 285 m -20 Y s 1547 285 m -20 Y s 1572 285 m -20 Y s 1597 285 m -20 Y s 1621 305 m -40 Y s 1646 285 m -20 Y s 1671 285 m -20 Y s 1695 285 m -20 Y s 1720 285 m -20 Y s 1745 305 m -40 Y s 1769 285 m -20 Y s 1794 285 m -20 Y s
 1819 285 m -20 Y s 1843 285 m -20 Y s 1868 305 m -40 Y s 1893 285 m -20 Y s 1917 285 m -20 Y s 1942 285 m -20 Y s 1966 285 m -20 Y s 1991 305 m -40 Y s 2016 285 m -20 Y s 2040 285 m -20 Y s 2065 285 m -20 Y s 2090 285 m -20 Y s 2114 305 m -40 Y s
 1128 305 m -40 Y s 2114 305 m -40 Y s black 1 1 1 c
 gsave  2236 2948 0 0 C 1106.26 168.929 t 0 r /Helvetica findfont 73.2523 sf 0 0 m (40) show NC gr  black 1 1 1 c
 gsave  2236 2948 0 0 C 1067.39 168.929 t 0 r /Symbol findfont 73.2523 sf 0 0 m (-) show NC gr  black 1 1 1 c
 gsave  2236 2948 0 0 C 1230.34 168.929 t 0 r /Helvetica findfont 73.2523 sf 0 0 m (30) show NC gr  black 1 1 1 c
 gsave  2236 2948 0 0 C 1191.47 168.929 t 0 r /Symbol findfont 73.2523 sf 0 0 m (-) show NC gr  black 1 1 1 c
 gsave  2236 2948 0 0 C 1352.93 168.929 t 0 r /Helvetica findfont 73.2523 sf 0 0 m (20) show NC gr  black 1 1 1 c
 gsave  2236 2948 0 0 C 1314.06 168.929 t 0 r /Symbol findfont 73.2523 sf 0 0 m (-) show NC gr  black 1 1 1 c
 gsave  2236 2948 0 0 C 1477.01 168.929 t 0 r /Helvetica findfont 73.2523 sf 0 0 m (10) show NC gr  black 1 1 1 c
 gsave  2236 2948 0 0 C 1438.14 168.929 t 0 r /Symbol findfont 73.2523 sf 0 0 m (-) show NC gr  black 1 1 1 c
 gsave  2236 2948 0 0 C 1601.09 168.929 t 0 r /Helvetica findfont 73.2523 sf 0 0 m (0) show NC gr  black 1 1 1 c
 gsave  2236 2948 0 0 C 1704.24 168.929 t 0 r /Helvetica findfont 73.2523 sf 0 0 m (10) show NC gr  black 1 1 1 c
 gsave  2236 2948 0 0 C 1826.82 168.929 t 0 r /Helvetica findfont 73.2523 sf 0 0 m (20) show NC gr  black 1 1 1 c
 gsave  2236 2948 0 0 C 1949.41 168.929 t 0 r /Helvetica findfont 73.2523 sf 0 0 m (30) show NC gr  black 1 1 1 c
 gsave  2236 2948 0 0 C 2073.49 168.929 t 0 r /Helvetica findfont 73.2523 sf 0 0 m (40) show NC gr  black 1118 265 m 2418 Y s
 gsave  2236 2948 0 0 C 122.585 678.705 t 0 r /Helvetica findfont 55.313 sf 0 0 m (MET_SoftTrk_ResoPara_WW_Rel21_H) show NC gr 
 gsave  2236 2948 0 0 C 7.47473 757.937 t 0 r /Helvetica findfont 55.313 sf 0 0 m (BkgTheory_ztautau_generator_vbf_HWW_H) show NC gr 
 gsave  2236 2948 0 0 C 394.665 835.674 t 0 r /Helvetica findfont 55.313 sf 0 0 m (JES_Flavor_Comp_Rel21_H) show NC gr 
 gsave  2236 2948 0 0 C 266.1 913.411 t 0 r /Helvetica findfont 55.313 sf 0 0 m (FTAG_C1_EMTopoMV2c10PC_H) show NC gr 
 gsave  2236 2948 0 0 C -493.332 992.643 t 0 r /Helvetica findfont 55.313 sf 0 0 m (FT_EFF_extrapolation_from_charm_PFlowDL1rWP85Medium_H) show NC gr 
 gsave  2236 2948 0 0 C -204.807 1070.38 t 0 r /Helvetica findfont 55.313 sf 0 0 m (FT_EFF_Eigen_Light_3_PFlowDL1rWP85Medium_H) show NC gr 
 gsave  2236 2948 0 0 C 186.868 1148.12 t 0 r /Helvetica findfont 55.313 sf 0 0 m (BkgTheory_SysStopWtPTV_VHbb_H) show NC gr 
 gsave  2236 2948 0 0 C 239.191 1225.85 t 0 r /Helvetica findfont 55.313 sf 0 0 m (BkgTheory_ttc_norm_unc_ttHbb_H) show NC gr 
 gsave  2236 2948 0 0 C 118.101 1303.59 t 0 r /Helvetica findfont 55.313 sf 0 0 m (BkgTheory_ttb_Gen_CR_dilep_ttHbb_H) show NC gr 
 gsave  2236 2948 0 0 C -330.383 1381.33 t 0 r /Helvetica findfont 55.313 sf 0 0 m (BkgTheory_SysBDTr_ttbar_PS_J3_L1_BMin150_VHbb_H) show NC gr 
 gsave  2236 2948 0 0 C 333.373 1457.57 t 0 r /Helvetica findfont 55.313 sf 0 0 m (JER_EffectiveNP_5_Rel21_HH) show NC gr 
 gsave  2236 2948 0 0 C 88.2018 1538.3 t 0 r /Helvetica findfont 55.313 sf 0 0 m (BkgTheory_ACC_Zhf_GENERATOR_HH) show NC gr 
 gsave  2236 2948 0 0 C -204.807 1616.04 t 0 r /Helvetica findfont 55.313 sf 0 0 m (FT_EFF_Eigen_Light_0_PFlowDL1rWP85Medium_H) show NC gr 
 gsave  2236 2948 0 0 C 20.9292 1693.77 t 0 r /Helvetica findfont 55.313 sf 0 0 m (bbbb_CR12_E_ggf_Y17_channel_HHComb) show NC gr 
 gsave  2236 2948 0 0 C 100.161 1771.51 t 0 r /Helvetica findfont 55.313 sf 0 0 m (BkgTheory_SysStopWtothACC_VHbb_H) show NC gr 
 gsave  2236 2948 0 0 C 16.4444 1849.25 t 0 r /Helvetica findfont 55.313 sf 0 0 m (bbbb_CR12_N_ggf_Y17_channel_HHComb) show NC gr 
 gsave  2236 2948 0 0 C 266.1 1926.98 t 0 r /Helvetica findfont 55.313 sf 0 0 m (TheorySig_QCDscale_ggF_res_H) show NC gr 
 gsave  2236 2948 0 0 C 324.403 2006.22 t 0 r /Helvetica findfont 55.313 sf 0 0 m (BkgTheory_ACC_ME_ttbar_HH) show NC gr 
 gsave  2236 2948 0 0 C 493.332 2083.95 t 0 r /Helvetica findfont 55.313 sf 0 0 m (PH_EFF_ID_Uncertainty) show NC gr 
 gsave  2236 2948 0 0 C 257.131 2161.69 t 0 r /Helvetica findfont 55.313 sf 0 0 m (MET_SoftTrk_ResoPerp_Rel21_H) show NC gr 
 gsave  2236 2948 0 0 C 10.4646 2239.43 t 0 r /Helvetica findfont 55.313 sf 0 0 m (bbbb_NC_3b1f_ggf_Y17_channel_HHComb) show NC gr 
 gsave  2236 2948 0 0 C 131.555 2317.16 t 0 r /Helvetica findfont 55.313 sf 0 0 m (TheorySig_QCDscale_ggVHLep_mu_H) show NC gr 
 gsave  2236 2948 0 0 C 149.495 2394.9 t 0 r /Helvetica findfont 55.313 sf 0 0 m (BkgTheory_SysWhf_nJetAcc_VHbb_H) show NC gr 
 gsave  2236 2948 0 0 C 539.675 2474.13 t 0 r /Helvetica findfont 55.313 sf 0 0 m (TheorySig_ttH_FSR_H) show NC gr 
 gsave  2236 2948 0 0 C -394.665 2551.87 t 0 r /Helvetica findfont 55.313 sf 0 0 m (BkgTheory_SysZbbCRSRextrap_CRHigh_resolved_VHbb_H) show NC gr  1118 265 m cl s 1118 343 m cl s 1118 421 m cl s 1118 499 m cl s 1118 577 m cl s 1118 655 m cl s 1118
 733 m cl s 1118 811 m cl s 1118 889 m cl s 1118 967 m cl s 1118 1045 m cl s 1118 1123 m cl s 1118 1201 m cl s 1118 1279 m cl s 1118 1357 m cl s 1118 1435 m cl s 1118 1513 m cl s 1118 1591 m cl s 1118 1669 m cl s 1118 1747 m cl s 1118 1825 m cl s
 1118 1903 m cl s 1118 1981 m cl s 1118 2059 m cl s 1118 2137 m cl s 1118 2215 m cl s 1118 2293 m cl s 1118 2371 m cl s 1118 2449 m cl s 1118 2527 m cl s 1118 2605 m cl s 1118 2683 m cl s 0.9 0.9 0.9 c 1 lw << /PatternType 1 /PaintType 2 /TilingType
 1 /BBox [ 0 0 98 4 ] /XStep 98 /YStep 4 /PaintProc { begin gsave [1] 0 sd 2 4 m 99 4 l s 1 3 m 98 3 l s 2 2 m 99 2 l s 1 1 m 98 1 l s gr end } >> [ 4.0 0 0 4.0 0 0 ] makepattern /P01 exch def /cs {[/Pattern /DeviceRGB] setcolorspace} def /FA {f
 [/DeviceRGB] setcolorspace} def cs 0.9 0.9 0.9 P01 setcolor 1118 655 m 1007 X 78 Y -1007 X FA 3 lw 0.9 0.9 0.9 c cs 0.9 0.9 0.9 P01 setcolor 1118 811 m 1007 X 78 Y -1007 X FA 0.9 0.9 0.9 c cs 0.9 0.9 0.9 P01 setcolor 1118 967 m 1007 X 78 Y -1007 X
 FA 0.9 0.9 0.9 c cs 0.9 0.9 0.9 P01 setcolor 1118 1123 m 1007 X 78 Y -1007 X FA 0.9 0.9 0.9 c cs 0.9 0.9 0.9 P01 setcolor 1118 1279 m 1007 X 78 Y -1007 X FA 0.9 0.9 0.9 c cs 0.9 0.9 0.9 P01 setcolor 1118 1435 m 1007 X 78 Y -1007 X FA 0.9 0.9 0.9 c
 cs 0.9 0.9 0.9 P01 setcolor 1118 1591 m 1007 X 78 Y -1007 X FA 0.9 0.9 0.9 c cs 0.9 0.9 0.9 P01 setcolor 1118 1747 m 1007 X 78 Y -1007 X FA 0.9 0.9 0.9 c cs 0.9 0.9 0.9 P01 setcolor 1118 1903 m 1007 X 78 Y -1007 X FA 0.9 0.9 0.9 c cs 0.9 0.9 0.9 P01
 setcolor 1118 2059 m 1007 X 78 Y -1007 X FA 0.9 0.9 0.9 c cs 0.9 0.9 0.9 P01 setcolor 1118 2215 m 1007 X 78 Y -1007 X FA 0.9 0.9 0.9 c cs 0.9 0.9 0.9 P01 setcolor 1118 2371 m 1007 X 78 Y -1007 X FA 0.9 0.9 0.9 c cs 0.9 0.9 0.9 P01 setcolor 1118 2527
 m 1007 X 78 Y -1007 X FA 0.9 0.9 0.9 c black 0 0.6 1 c 18 39 1603 655 bf 18 39 1603 694 bf 36 39 1601 733 bf 36 39 1601 772 bf 0 39 1621 811 bf 0 39 1621 850 bf 0 39 1621 889 bf 0 39 1621 928 bf 0 39 1621 967 bf 0 39 1621 1006 bf 0 39 1621 1045 bf 0
 39 1621 1084 bf 0 39 1621 1123 bf 0 39 1621 1162 bf 40 39 1603 1201 bf 40 39 1603 1240 bf 0 39 1621 1279 bf 0 39 1621 1318 bf 0 39 1621 1357 bf 0 39 1621 1396 bf 0 39 1621 1435 bf 0 39 1621 1474 bf 43 39 1601 1513 bf 43 39 1601 1552 bf 44 39 1599
 1591 bf 44 39 1599 1630 bf 44 39 1599 1669 bf 44 39 1599 1708 bf 46 39 1598 1747 bf 46 39 1598 1786 bf 46 39 1599 1825 bf 46 39 1599 1864 bf 0 39 1621 1903 bf 0 39 1621 1942 bf 50 39 1596 1981 bf 50 39 1596 2020 bf 0 39 1621 2059 bf 0 39 1621 2098
 bf 0 39 1621 2137 bf 0 39 1621 2176 bf 59 39 1590 2215 bf 59 39 1590 2254 bf 59 39 1591 2293 bf 59 39 1591 2332 bf 61 39 1590 2371 bf 61 39 1590 2410 bf 0 39 1621 2449 bf 0 39 1621 2488 bf 0 39 1621 2527 bf 0 39 1621 2566 bf black 0.266667 1
 0.580392 c 0 39 1621 655 bf 0 39 1621 694 bf 0 39 1621 733 bf 0 39 1621 772 bf 37 39 1602 811 bf 37 39 1602 850 bf 37 39 1603 889 bf 37 39 1603 928 bf 39 39 1601 967 bf 39 39 1601 1006 bf 39 39 1601 1045 bf 39 39 1601 1084 bf 40 39 1600 1123 bf 40
 39 1600 1162 bf 0 39 1621 1201 bf 0 39 1621 1240 bf 40 39 1603 1279 bf 40 39 1603 1318 bf 40 39 1601 1357 bf 40 39 1601 1396 bf 43 39 1605 1435 bf 43 39 1605 1474 bf 0 39 1621 1513 bf 0 39 1621 1552 bf 0 39 1621 1591 bf 0 39 1621 1630 bf 0 39 1621
 1669 bf 0 39 1621 1708 bf 0 39 1621 1747 bf 0 39 1621 1786 bf 0 39 1621 1825 bf 0 39 1621 1864 bf 46 39 1597 1903 bf 46 39 1597 1942 bf 0 39 1621 1981 bf 0 39 1621 2020 bf 52 39 1595 2059 bf 52 39 1595 2098 bf 56 39 1589 2137 bf 56 39 1589 2176 bf 0
 39 1621 2215 bf 0 39 1621 2254 bf 0 39 1621 2293 bf 0 39 1621 2332 bf 0 39 1621 2371 bf 0 39 1621 2410 bf 61 39 1589 2449 bf 61 39 1589 2488 bf 62 39 1590 2527 bf 62 39 1590 2566 bf black 0 0.00392157 0.333333 c 3 lw 18 39 1603 655 bl 18 39 1603 694
 bl 50 39 1590 733 bl 50 39 1590 772 bl 0 39 1621 811 bl 0 39 1621 850 bl 0 39 1621 889 bl 0 39 1621 928 bl 0 39 1621 967 bl 0 39 1621 1006 bl 0 39 1621 1045 bl 0 39 1621 1084 bl 0 39 1621 1123 bl 0 39 1621 1162 bl 111 39 1573 1201 bl 111 39 1573
 1240 bl 0 39 1621 1279 bl 0 39 1621 1318 bl 0 39 1621 1357 bl 0 39 1621 1396 bl 0 39 1621 1435 bl 0 39 1621 1474 bl 69 39 1589 1513 bl 69 39 1589 1552 bl 44 39 1599 1591 bl 44 39 1599 1630 bl 53 39 1594 1669 bl 53 39 1594 1708 bl 50 39 1595 1747 bl
 50 39 1595 1786 bl 65 39 1591 1825 bl 65 39 1591 1864 bl 0 39 1621 1903 bl 0 39 1621 1942 bl 67 39 1587 1981 bl 67 39 1587 2020 bl 0 39 1621 2059 bl 0 39 1621 2098 bl 0 39 1621 2137 bl 0 39 1621 2176 bl 77 39 1580 2215 bl 77 39 1580 2254 bl 61 39
 1590 2293 bl 61 39 1590 2332 bl 126 39 1557 2371 bl 126 39 1557 2410 bl 0 39 1621 2449 bl 0 39 1621 2488 bl 0 39 1621 2527 bl 0 39 1621 2566 bl black 0.00784314 0.466667 0.203922 c 0 39 1621 655 bl 0 39 1621 694 bl 0 39 1621 733 bl 0 39 1621 772 bl
 62 39 1585 811 bl 62 39 1585 850 bl 41 39 1601 889 bl 41 39 1601 928 bl 40 39 1601 967 bl 40 39 1601 1006 bl 40 39 1601 1045 bl 40 39 1601 1084 bl 44 39 1597 1123 bl 44 39 1597 1162 bl 0 39 1621 1201 bl 0 39 1621 1240 bl 55 39 1598 1279 bl 55 39
 1598 1318 bl 57 39 1592 1357 bl 57 39 1592 1396 bl 45 39 1604 1435 bl 45 39 1604 1474 bl 0 39 1621 1513 bl 0 39 1621 1552 bl 0 39 1621 1591 bl 0 39 1621 1630 bl 0 39 1621 1669 bl 0 39 1621 1708 bl 0 39 1621 1747 bl 0 39 1621 1786 bl 0 39 1621 1825
 bl 0 39 1621 1864 bl 48 39 1596 1903 bl 48 39 1596 1942 bl 0 39 1621 1981 bl 0 39 1621 2020 bl 54 39 1594 2059 bl 54 39 1594 2098 bl 105 39 1562 2137 bl 105 39 1562 2176 bl 0 39 1621 2215 bl 0 39 1621 2254 bl 0 39 1621 2293 bl 0 39 1621 2332 bl 0 39
 1621 2371 bl 0 39 1621 2410 bl 61 39 1589 2449 bl 61 39 1589 2488 bl 114 39 1564 2527 bl 114 39 1564 2566 bl black 1118 2683 m 1007 X s 1219 2643 m 40 Y s 1259 2663 m 20 Y s 1299 2663 m 20 Y s 1340 2663 m 20 Y s 1380 2663 m 20 Y s 1420 2643 m 40 Y s
 1460 2663 m 20 Y s 1501 2663 m 20 Y s 1541 2663 m 20 Y s 1581 2663 m 20 Y s 1621 2643 m 40 Y s 1662 2663 m 20 Y s 1702 2663 m 20 Y s 1742 2663 m 20 Y s 1782 2663 m 20 Y s 1823 2643 m 40 Y s 1863 2663 m 20 Y s 1903 2663 m 20 Y s 1943 2663 m 20 Y s
 1984 2663 m 20 Y s 2024 2643 m 40 Y s 1219 2643 m 40 Y s 1179 2663 m 20 Y s 1138 2663 m 20 Y s 2024 2643 m 40 Y s 2064 2663 m 20 Y s 2104 2663 m 20 Y s
 gsave  2236 2948 0 0 C 1194.46 2707.35 t 0 r /Helvetica findfont 70.2624 sf 0 0 m (0.1) show NC gr 
 gsave  2236 2948 0 0 C 1157.09 2707.35 t 0 r /Symbol findfont 70.2624 sf 0 0 m (-) show NC gr 
 gsave  2236 2948 0 0 C 1369.37 2707.35 t 0 r /Helvetica findfont 70.2624 sf 0 0 m (0.05) show NC gr 
 gsave  2236 2948 0 0 C 1332 2707.35 t 0 r /Symbol findfont 70.2624 sf 0 0 m (-) show NC gr 
 gsave  2236 2948 0 0 C 1602.58 2707.35 t 0 r /Helvetica findfont 70.2624 sf 0 0 m (0) show NC gr 
 gsave  2236 2948 0 0 C 1755.07 2707.35 t 0 r /Helvetica findfont 70.2624 sf 0 0 m (0.05) show NC gr 
 gsave  2236 2948 0 0 C 1980.8 2707.35 t 0 r /Helvetica findfont 70.2624 sf 0 0 m (0.1) show NC gr 
 gsave  2236 2948 0 0 C 2097.41 2817.97 t 0 r /Symbol findfont 47.8382 sf 0 0 m (l) show NC gr 
 gsave  2236 2948 0 0 C 2057.04 2838.9 t 0 r /Symbol findfont 70.2624 sf 0 0 m (k) show NC gr  6 lw 2068 2888 m 22 11 d s 2090 2899 m 22 -11 d s
 gsave  2236 2948 0 0 C 2012.2 2838.9 t 0 r /Helvetica findfont 70.2624 sf 0 0 m (\)/) show NC gr 
 gsave  2236 2948 0 0 C 1985.29 2817.97 t 0 r /Symbol findfont 47.8382 sf 0 0 m (l) show NC gr 
 gsave  2236 2948 0 0 C 1944.92 2838.9 t 0 r /Symbol findfont 70.2624 sf 0 0 m (k) show NC gr  1955 2888 m 23 11 d s 1978 2899 m 22 -11 d s
 gsave  2236 2948 0 0 C 1901.57 2838.9 t 0 r /Symbol findfont 70.2624 sf 0 0 m (D) show NC gr 
 gsave  2236 2948 0 0 C 1880.64 2838.9 t 0 r /Helvetica findfont 70.2624 sf 0 0 m (\() show NC gr  3 lw 1118 265 m 1007 X s 1128 305 m -40 Y s 1153 285 m -20 Y s 1178 285 m -20 Y s 1202 285 m -20 Y s 1227 285 m -20 Y s 1252 305 m -40 Y s 1276 285 m
 -20 Y s 1301 285 m -20 Y s 1326 285 m -20 Y s 1350 285 m -20 Y s 1375 305 m -40 Y s 1400 285 m -20 Y s 1424 285 m -20 Y s 1449 285 m -20 Y s 1474 285 m -20 Y s 1498 305 m -40 Y s 1523 285 m -20 Y s 1547 285 m -20 Y s 1572 285 m -20 Y s 1597 285 m
 -20 Y s 1621 305 m -40 Y s 1646 285 m -20 Y s 1671 285 m -20 Y s 1695 285 m -20 Y s 1720 285 m -20 Y s 1745 305 m -40 Y s 1769 285 m -20 Y s 1794 285 m -20 Y s 1819 285 m -20 Y s 1843 285 m -20 Y s 1868 305 m -40 Y s 1893 285 m -20 Y s 1917 285 m
 -20 Y s 1942 285 m -20 Y s 1966 285 m -20 Y s 1991 305 m -40 Y s 2016 285 m -20 Y s 2040 285 m -20 Y s 2065 285 m -20 Y s 2090 285 m -20 Y s 2114 305 m -40 Y s 1128 305 m -40 Y s 2114 305 m -40 Y s
 gsave  2236 2948 0 0 C 1107.75 170.424 t 0 r /Helvetica findfont 70.2624 sf 0 0 m (20) show NC gr 
 gsave  2236 2948 0 0 C 1070.38 170.424 t 0 r /Symbol findfont 70.2624 sf 0 0 m (-) show NC gr 
 gsave  2236 2948 0 0 C 1231.83 170.424 t 0 r /Helvetica findfont 70.2624 sf 0 0 m (15) show NC gr 
 gsave  2236 2948 0 0 C 1192.97 170.424 t 0 r /Symbol findfont 70.2624 sf 0 0 m (-) show NC gr 
 gsave  2236 2948 0 0 C 1354.42 170.424 t 0 r /Helvetica findfont 70.2624 sf 0 0 m (10) show NC gr 
 gsave  2236 2948 0 0 C 1317.05 170.424 t 0 r /Symbol findfont 70.2624 sf 0 0 m (-) show NC gr 
 gsave  2236 2948 0 0 C 1497.93 170.424 t 0 r /Helvetica findfont 70.2624 sf 0 0 m (5) show NC gr 
 gsave  2236 2948 0 0 C 1459.07 170.424 t 0 r /Symbol findfont 70.2624 sf 0 0 m (-) show NC gr 
 gsave  2236 2948 0 0 C 1602.58 170.424 t 0 r /Helvetica findfont 70.2624 sf 0 0 m (0) show NC gr 
 gsave  2236 2948 0 0 C 1725.17 170.424 t 0 r /Helvetica findfont 70.2624 sf 0 0 m (5) show NC gr 
 gsave  2236 2948 0 0 C 1829.81 170.424 t 0 r /Helvetica findfont 70.2624 sf 0 0 m (10) show NC gr 
 gsave  2236 2948 0 0 C 1950.9 170.424 t 0 r /Helvetica findfont 70.2624 sf 0 0 m (15) show NC gr 
 gsave  2236 2948 0 0 C 2076.48 170.424 t 0 r /Helvetica findfont 70.2624 sf 0 0 m (20) show NC gr 
 gsave  2236 2948 0 0 C 2089.93 62.7877 t 0 r /Symbol findfont 70.2624 sf 0 0 m (q) show NC gr 
 gsave  2236 2948 0 0 C 2046.58 62.7877 t 0 r /Symbol findfont 70.2624 sf 0 0 m (D) show NC gr 
 gsave  2236 2948 0 0 C 2001.73 62.7877 t 0 r /Helvetica findfont 70.2624 sf 0 0 m (\)/) show NC gr 
 gsave  2236 2948 0 0 C 1976.32 41.8585 t 0 r /Helvetica findfont 47.8382 sf 0 0 m (0) show NC gr 
 gsave  2236 2948 0 0 C 1941.93 62.7877 t 0 r /Symbol findfont 70.2624 sf 0 0 m (q) show NC gr 
 gsave  2236 2948 0 0 C 1877.65 62.7877 t 0 r /Helvetica findfont 70.2624 sf 0 0 m ( \255 ) show NC gr 
 gsave  2236 2948 0 0 C 1843.27 62.7877 t 0 r /Symbol findfont 70.2624 sf 0 0 m (q) show NC gr  6 lw 1848 112 m 12 11 d s 1860 123 m 12 -11 d s
 gsave  2236 2948 0 0 C 1822.34 62.7877 t 0 r /Helvetica findfont 70.2624 sf 0 0 m (\() show NC gr  3 lw 1118 655 m 2028 Y s 0.6 0.6 0.6 c[ 12 12] 0 sd 6 lw 1621 655 m 1950 Y s 1646 655 m 1950 Y s 1597 655 m 1950 Y s 1 0 0 c[  ] 0 sd 3 lw 1626 694 m
 -25 X s 1601 687 m 15 Y s 1626 694 m 25 X s 1651 687 m 15 Y s 1632 772 m -25 X s 1607 765 m 15 Y s 1632 772 m 24 X s 1656 765 m 15 Y s 1609 850 m -25 X s 1584 843 m 15 Y s 1609 850 m 24 X s 1633 843 m 15 Y s 1627 928 m -25 X s 1602 921 m 15 Y s 1627
 928 m 24 X s 1651 921 m 15 Y s 1623 1006 m -25 X s 1598 999 m 15 Y s 1623 1006 m 24 X s 1647 999 m 15 Y s 1623 1084 m -25 X s 1598 1077 m 15 Y s 1623 1084 m 24 X s 1647 1077 m 15 Y s 1613 1162 m -25 X s 1588 1155 m 15 Y s 1613 1162 m 25 X s 1638
 1155 m 15 Y s 1640 1240 m -25 X s 1615 1233 m 15 Y s 1640 1240 m 24 X s 1664 1233 m 15 Y s 1607 1318 m -24 X s 1583 1311 m 15 Y s 1607 1318 m 25 X s 1632 1311 m 15 Y s 1586 1396 m -25 X s 1561 1389 m 15 Y s 1586 1396 m 24 X s 1610 1389 m 15 Y s 1622
 1474 m -24 X s 1598 1467 m 14 Y s 1622 1474 m 25 X s 1647 1467 m 14 Y s 1628 1552 m -24 X s 1604 1545 m 14 Y s 1628 1552 m 25 X s 1653 1545 m 14 Y s 1614 1630 m -25 X s 1589 1623 m 14 Y s 1614 1630 m 25 X s 1639 1623 m 14 Y s 1635 1708 m -25 X s
 1610 1700 m 15 Y s 1635 1708 m 24 X s 1659 1700 m 15 Y s 1610 1786 m -25 X s 1585 1778 m 15 Y s 1610 1786 m 24 X s 1634 1778 m 15 Y s 1591 1864 m -25 X s 1566 1856 m 15 Y s 1591 1864 m 24 X s 1615 1856 m 15 Y s 1613 1942 m -24 X s 1589 1934 m 15 Y s
 1613 1942 m 25 X s 1638 1934 m 15 Y s 1644 2020 m -25 X s 1619 2012 m 15 Y s 1644 2020 m 24 X s 1668 2012 m 15 Y s 1625 2098 m -25 X s 1600 2090 m 15 Y s 1625 2098 m 24 X s 1649 2090 m 15 Y s 1627 2176 m -24 X s 1603 2168 m 15 Y s 1627 2176 m 25 X s
 1652 2168 m 15 Y s 1606 2254 m -25 X s 1581 2246 m 15 Y s 1606 2254 m 24 X s 1630 2246 m 15 Y s 1623 2332 m -25 X s 1598 2324 m 15 Y s 1623 2332 m 24 X s 1647 2324 m 15 Y s 1594 2410 m -25 X s 1569 2402 m 15 Y s 1594 2410 m 24 X s 1618 2402 m 15 Y s
 1616 2488 m -25 X s 1591 2480 m 15 Y s 1616 2488 m 24 X s 1640 2480 m 15 Y s 1653 2566 m -25 X s 1628 2558 m 15 Y s 1653 2566 m 25 X s 1678 2558 m 15 Y s 1 1 1 c 1 0 0 c /w 2 def /w2 {w 2 div} def /w3 {w 3 div} def 1626 694 1632 772 1609 850 1627
 928 1623 1006 1623 1084 1613 1162 1640 1240 1607 1318 1586 1396 1622 1474 1628 1552 1614 1630 1635 1708 1610 1786 1591 1864 1613 1942 1644 2020 1625 2098 1627 2176 1606 2254 1623 2332 1594 2410 1616 2488 1653 2566 25 { m20} R black 1620 694 m -15 X
 s 1605 687 m 15 Y s 1632 694 m 16 X s 1648 687 m 15 Y s 1626 772 m -12 X s 1614 765 m 15 Y s 1638 772 m 15 X s 1653 765 m 15 Y s 1603 850 m -10 X s 1593 843 m 15 Y s 1615 850 m 7 X s 1622 843 m 15 Y s 1621 928 m -17 X s 1604 921 m 15 Y s 1633 928 m
 16 X s 1649 921 m 15 Y s 1617 1006 m -19 X s 1598 999 m 15 Y s 1629 1006 m 18 X s 1647 999 m 15 Y s 1617 1084 m -19 X s 1598 1077 m 15 Y s 1629 1084 m 18 X s 1647 1077 m 15 Y s 1607 1162 m -16 X s 1591 1155 m 15 Y s 1619 1162 m 16 X s 1635 1155 m 15
 Y s 1634 1240 m -5 X s 1629 1233 m 15 Y s 1646 1240 m 2 X s 1648 1233 m 15 Y s 1601 1318 m -11 X s 1590 1311 m 15 Y s 1613 1318 m 12 X s 1625 1311 m 15 Y s 1580 1396 m -12 X s 1568 1389 m 15 Y s 1592 1396 m 11 X s 1603 1389 m 15 Y s 1617 1474 m -18
 X s 1599 1467 m 14 Y s 1628 1474 m 18 X s 1646 1467 m 14 Y s 1622 1552 m -8 X s 1614 1545 m 14 Y s 1634 1552 m 10 X s 1644 1545 m 14 Y s 1608 1630 m -18 X s 1590 1623 m 14 Y s 1620 1630 m 18 X s 1638 1623 m 14 Y s 1629 1708 m -15 X s 1614 1700 m 15
 Y s 1641 1708 m 15 X s 1656 1700 m 15 Y s 1604 1786 m -16 X s 1588 1778 m 15 Y s 1616 1786 m 16 X s 1632 1778 m 15 Y s 1585 1864 m -12 X s 1573 1856 m 15 Y s 1597 1864 m 11 X s 1608 1856 m 15 Y s 1607 1942 m -17 X s 1590 1934 m 15 Y s 1619 1942 m 18
 X s 1637 1934 m 15 Y s 1638 2020 m -13 X s 1625 2012 m 15 Y s 1650 2020 m 12 X s 1662 2012 m 15 Y s 1619 2098 m -18 X s 1601 2090 m 15 Y s 1631 2098 m 18 X s 1649 2090 m 15 Y s 1621 2176 m -7 X s 1614 2168 m 15 Y s 1633 2176 m 7 X s 1640 2168 m 15 Y
 s 1600 2254 m -13 X s 1587 2246 m 15 Y s 1612 2254 m 13 X s 1625 2246 m 15 Y s 1617 2332 m -18 X s 1599 2324 m 15 Y s 1629 2332 m 18 X s 1647 2324 m 15 Y s 1588 2410 m -6 X s 1582 2402 m 15 Y s 1600 2410 m 5 X s 1605 2402 m 15 Y s 1610 2488 m -18 X
 s 1592 2480 m 15 Y s 1622 2488 m 18 X s 1640 2480 m 15 Y s 1647 2566 m -7 X s 1640 2558 m 15 Y s 1659 2566 m 7 X s 1666 2558 m 15 Y s 1 1 1 c black /w 12 def /w2 {w 2 div} def /w3 {w 3 div} def 1626 694 1632 772 1609 850 1627 928 1623 1006 1623 1084
 1613 1162 1640 1240 1607 1318 1586 1396 1622 1474 1628 1552 1614 1630 1635 1708 1610 1786 1591 1864 1613 1942 1644 2020 1625 2098 1627 2176 1606 2254 1623 2332 1594 2410 1616 2488 1653 2566 25 { m20} R
 gsave  2236 2948 0 0 C 1654.9 568.079 t 0 r /Helvetica findfont 46.3433 sf 0 0 m (Pull) show NC gr  1465 583 m 156 X s 1543 583 m20
 gsave  2236 2948 0 0 C 1654.9 496.322 t 0 r /Helvetica findfont 46.3433 sf 0 0 m (1 standard deviation) show NC gr  1 0 0 c 1465 511 m 156 X s black
 gsave  2236 2948 0 0 C 2019.67 411.11 t 0 r /Symbol findfont 31.3938 sf 0 0 m (l) show NC gr 
 gsave  2236 2948 0 0 C 1992.76 424.564 t 0 r /Symbol findfont 46.3433 sf 0 0 m (k) show NC gr  6 lw 2000 457 m 15 8 d s 2015 465 m 15 -8 d s
 gsave  2236 2948 0 0 C 1654.9 424.564 t 0 r /Helvetica findfont 46.3433 sf 0 0 m (Prefit Impact on ) show NC gr  0 0.00392157 0.333333 c 3 lw 1465 414 m 156 X 51 Y -156 X cl s 6 lw 3 lw 1465 465 m 156 X s 1465 414 m 156 X s 1621 414 m 51 Y s 1465
 414 m 51 Y s black
 gsave  2236 2948 0 0 C 2040.6 339.353 t 0 r /Symbol findfont 31.3938 sf 0 0 m (l) show NC gr 
 gsave  2236 2948 0 0 C 2013.69 352.807 t 0 r /Symbol findfont 46.3433 sf 0 0 m (k) show NC gr  6 lw 2021 386 m 15 7 d s 2036 393 m 15 -7 d s
 gsave  2236 2948 0 0 C 1654.9 352.807 t 0 r /Helvetica findfont 46.3433 sf 0 0 m (Postfit Impact on ) show NC gr  0 0.6 1 c 3 lw 1465 342 m 156 X 51 Y -156 X f 6 lw black
 gsave  2236 2948 0 0 C 110.626 545.655 t 0 r /Helvetica-BoldOblique findfont 73.2523 sf 0 0 m (ATLAS) show NC gr 
 gsave  2236 2948 0 0 C 385.696 545.655 t 0 r /Helvetica findfont 73.2523 sf 0 0 m (Internal) show NC gr 
 gsave  2236 2948 0 0 C 705.614 497.817 t 0 r /Helvetica findfont 49.3332 sf 0 0 m (\2551) show NC gr 
 gsave  2236 2948 0 0 C 183.878 464.928 t 0 r /Helvetica findfont 73.2523 sf 0 0 m (=13 TeV, 139 fb) show NC gr 
 gsave  2236 2948 0 0 C 149.495 464.928 t 0 r /Helvetica findfont 73.2523 sf 0 0 m (s) show NC gr  6 lw 126 505 m 7 -43 d s 3 lw 133 462 m 8 64 d s 141 526 m 43 X s
 gsave  2236 2948 0 0 C 110.626 384.201 t 0 r /Helvetica findfont 73.2523 sf 0 0 m (HH+H) show NC gr 
 gsave  2236 2948 0 0 C 110.626 303.474 t 0 r /Helvetica findfont 73.2523 sf 0 0 m (Observed) show NC gr 
 gr  gr showpage
end
%%EOF
