%!PS-Adobe-2.0 EPSF-2.0
%%BoundingBox:  0 0 559 737
%%Title: figures/ranking_klambda_rank_0001_to_0025_HH_H_kl.eps: c1
%%Creator: ROOT Version 6.24/06
%%CreationDate: Tue Jun 28 14:16:52 2022
%%DocumentNeededResources: ProcSet (FontSetInit)
%%EndComments
%%BeginProlog
80 dict begin
/s {stroke} def /l {lineto} def /m {moveto} def /t {translate} def
/r {rotate} def /rl {roll}  def /R {repeat} def
/d {rlineto} def /rm {rmoveto} def /gr {grestore} def /f {eofill} def
/c {setrgbcolor} def /black {0 setgray} def /sd {setdash} def
/cl {closepath} def /sf {scalefont setfont} def /lw {setlinewidth} def
/box {m dup 0 exch d exch 0 d 0 exch neg d cl} def
/NC{systemdict begin initclip end}def/C{NC box clip newpath}def
/bl {box s} def /bf {gsave box gsave f grestore 1 lw [] 0 sd s grestore} def /Y { 0 exch d} def /X { 0 d} def 
/K {{pop pop 0 moveto} exch kshow} bind def
/ita {/ang 15 def gsave [1 0 ang dup sin exch cos div 1 0 0] concat} def 
/mp {newpath /y exch def /x exch def} def
/side {[w .77 mul w .23 mul] .385 w mul sd w 0 l currentpoint t -144 r} def
/mr {mp x y w2 0 360 arc} def /m24 {mr s} def /m20 {mr f} def
/mb {mp x y w2 add m w2 neg 0 d 0 w neg d w 0 d 0 w d cl} def
/mt {mp x y w2 add m w2 neg w neg d w 0 d cl} def
/w4 {w 4 div} def
/w6 {w 6 div} def
/w8 {w 8 div} def
/m21 {mb f} def /m25 {mb s} def /m22 {mt f} def /m26{mt s} def
/m23 {mp x y w2 sub m w2 w d w neg 0 d cl f} def
/m27 {mp x y w2 add m w3 neg w2 neg d w3 w2 neg d w3 w2 d cl s} def
/m28 {mp x w2 sub y w2 sub w3 add m w3 0 d  0 w3 neg d w3 0 d 0 w3 d w3 0 d  0 w3 d w3 neg 0 d 0 w3 d w3 neg 0 d 0 w3 neg d w3 neg 0 d cl s } def
/m29 {mp gsave x w2 sub y w2 add w3 sub m currentpoint t 4 {side} repeat cl fill gr} def
/m30 {mp gsave x w2 sub y w2 add w3 sub m currentpoint t 4 {side} repeat cl s gr} def
/m31 {mp x y w2 sub m 0 w d x w2 sub y m w 0 d x w2 .707 mul sub y w2 .707 mul add m w 1.44 div w 1.44 div neg d x w2 .707 mul sub y w2 .707 mul sub m w 1.44 div w 1.44 div d s} def
/m32 {mp x y w2 sub m w2 w d w neg 0 d cl s} def
/m33 {mp x y w2 add m w3 neg w2 neg d w3 w2 neg d w3 w2 d cl f} def
/m34 {mp x w2 sub y w2 sub w3 add m w3 0 d  0 w3 neg d w3 0 d 0 w3 d w3 0 d  0 w3 d w3 neg 0 d 0 w3 d w3 neg 0 d 0 w3 neg d w3 neg 0 d cl f } def
/m35 {mp x y w2 add m w2 neg w2 neg d w2 w2 neg d w2 w2 d w2 neg w2 d x y w2 sub m 0 w d x w2 sub y m w 0 d s} def
/m36 {mb x w2 sub y w2 add m w w neg d x w2 sub y w2 sub m w w d s} def
/m37 {mp x y m w4 neg w2 d w4 neg w2 neg d w2 0 d  w4 neg w2 neg d w2 0 d w4 neg w2 d w2 0 d w4 neg w2 d w4 neg w2 neg d cl s} def
/m38 {mp x w4 sub y w2 add m w4 neg w4 neg d 0 w2 neg d w4 w4 neg d w2 0 d w4 w4 d 0 w2 d w4 neg w4 d w2 neg 0 d x y w2 sub m 0 w d x w2 sub y m w 0 d cl s} def
/m39 {mp x y m w4 neg w2 d w4 neg w2 neg d w2 0 d  w4 neg w2 neg d w2 0 d w4 neg w2 d w2 0 d w4 neg w2 d w4 neg w2 neg d cl f} def
/m40 {mp x y m w4 w2 d w4 w4 neg d w2 neg w4 neg d w2 w4 neg d w4 neg w4 neg d w4 neg w2 d w4 neg w2 neg d w4 neg w4 d w2 w4 d w2 neg w4 d w4 w4 d w4 w2 neg d cl s} def
/m41 {mp x y m w4 w2 d w4 w4 neg d w2 neg w4 neg d w2 w4 neg d w4 neg w4 neg d w4 neg w2 d w4 neg w2 neg d w4 neg w4 d w2 w4 d w2 neg w4 d w4 w4 d w4 w2 neg d cl f} def
/m42 {mp x y w2 add m w8 neg w2 -3 4 div mul d w2 -3 4 div mul w8 neg d w2 3 4 div mul w8 neg d w8 w2 -3 4 div mul d w8 w2 3 4 div mul d w2 3 4 div mul w8 d w2 -3 4 div mul w8 d w8 neg w2 3 4 div mul d cl s} def
/m43 {mp x y w2 add m w8 neg w2 -3 4 div mul d w2 -3 4 div mul w8 neg d w2 3 4 div mul w8 neg d w8 w2 -3 4 div mul d w8 w2 3 4 div mul d w2 3 4 div mul w8 d w2 -3 4 div mul w8 d w8 neg w2 3 4 div mul d cl f} def
/m44 {mp x y m w6 neg w2 d w2 2 3 div mul 0 d w6 neg w2 neg d w2 w6 d 0 w2 -2 3 div mul d w2 neg w6 d w6 w2 neg d w2 -2 3 div mul 0 d w6 w2 d w2 neg w6 neg d 0 w2 2 3 div mul d w2 w6 neg d cl s} def
/m45 {mp x y m w6 neg w2 d w2 2 3 div mul 0 d w6 neg w2 neg d w2 w6 d 0 w2 -2 3 div mul d w2 neg w6 d w6 w2 neg d w2 -2 3 div mul 0 d w6 w2 d w2 neg w6 neg d 0 w2 2 3 div mul d w2 w6 neg d cl f} def
/m46 {mp x y w4 add m w4 neg w4 d w4 neg w4 neg d  w4 w4 neg d w4 neg w4 neg d w4 w4 neg d w4 w4 d w4 w4 neg d w4 w4 d w4 neg w4 d w4 w4 d w4 neg w4 d w4 neg w4 neg d cl s} def
/m47 {mp x y w4 add m w4 neg w4 d w4 neg w4 neg d w4 w4 neg d w4 neg w4 neg d  w4 w4 neg d w4 w4 d w4 w4 neg d w4 w4 d w4 neg w4 d w4 w4 d w4 neg w4 d w4 neg w4 neg d cl f} def
/m48 {mp x y w4 add m w4 neg w4 d w4 neg w4 neg d w4 w4 neg d  w4 neg w4 neg d w4 w4 neg d w4 w4 d w4 w4 neg d w4 w4 d w4 neg w4 d w4 w4 d w4 neg w4 d w4 neg w4 neg d  w4 w4 neg d w4 neg w4 neg d w4 neg w4 d w4 w4 d cl f} def
/m49 {mp x w2 sub w3 add y w2 sub w3 add m  0 w3 neg d w3 0 d 0 w3 d w3 0 d 0 w3 d w3 neg 0 d 0 w3 d w3 neg 0 d 0 w3 neg d w3 neg 0 d 0 w3 neg d w3 0 d 0 w3 d w3 0 d 0 w3 neg d w3 neg 0 d cl f } def
/m2 {mp x y w2 sub m 0 w d x w2 sub y m w 0 d s} def
/m5 {mp x w2 .707 mul sub y w2 .707 mul sub m w 1.44 div w 1.44 div d x w2 .707 mul sub y w2 .707 mul add m w 1.44 div w 1.44 div neg d s} def
%%IncludeResource: ProcSet (FontSetInit)
%%IncludeResource: font Times-Roman
%%IncludeResource: font Times-Italic
%%IncludeResource: font Times-Bold
%%IncludeResource: font Times-BoldItalic
%%IncludeResource: font Helvetica
%%IncludeResource: font Helvetica-Oblique
%%IncludeResource: font Helvetica-Bold
%%IncludeResource: font Helvetica-BoldOblique
%%IncludeResource: font Courier
%%IncludeResource: font Courier-Oblique
%%IncludeResource: font Courier-Bold
%%IncludeResource: font Courier-BoldOblique
%%IncludeResource: font Symbol
%%IncludeResource: font ZapfDingbats
/reEncode {exch findfont dup length dict begin {1 index /FID eq  {pop pop} {def} ifelse } forall /Encoding exch def currentdict end dup /FontName get exch definefont pop } def [/Times-Bold /Times-Italic /Times-BoldItalic /Helvetica /Helvetica-Oblique
 /Helvetica-Bold /Helvetica-BoldOblique /Courier /Courier-Oblique /Courier-Bold /Courier-BoldOblique /Times-Roman /AvantGarde-Book /AvantGarde-BookOblique /AvantGarde-Demi /AvantGarde-DemiOblique /Bookman-Demi /Bookman-DemiItalic /Bookman-Light
 /Bookman-LightItalic /Helvetica-Narrow /Helvetica-Narrow-Bold /Helvetica-Narrow-BoldOblique /Helvetica-Narrow-Oblique /NewCenturySchlbk-Roman /NewCenturySchlbk-Bold /NewCenturySchlbk-BoldItalic /NewCenturySchlbk-Italic /Palatino-Bold
 /Palatino-BoldItalic /Palatino-Italic /Palatino-Roman ] {ISOLatin1Encoding reEncode } forall
%%EndProlog
%%BeginSetup
%%EndSetup
newpath  gsave  .25 .25 scale  gsave  0 0 t black[  ] 0 sd 3 lw 1 1 1 c 2236 2948 0 0 bf black 1 1 1 c 2236 2948 0 0 bf black 1 1 1 c 1007 2418 1118 265 bf black 1007 2418 1118 265 bl 1 1 1 c 1118 265 m 1007 X s 1141 305 m -40 Y s 1165 285 m -20 Y s
 1189 285 m -20 Y s 1213 285 m -20 Y s 1237 285 m -20 Y s 1261 305 m -40 Y s 1285 285 m -20 Y s 1309 285 m -20 Y s 1333 285 m -20 Y s 1357 285 m -20 Y s 1381 305 m -40 Y s 1405 285 m -20 Y s 1429 285 m -20 Y s 1453 285 m -20 Y s 1477 285 m -20 Y s
 1501 305 m -40 Y s 1525 285 m -20 Y s 1549 285 m -20 Y s 1573 285 m -20 Y s 1597 285 m -20 Y s 1621 305 m -40 Y s 1645 285 m -20 Y s 1669 285 m -20 Y s 1694 285 m -20 Y s 1718 285 m -20 Y s 1742 305 m -40 Y s 1766 285 m -20 Y s 1790 285 m -20 Y s
 1814 285 m -20 Y s 1838 285 m -20 Y s 1862 305 m -40 Y s 1886 285 m -20 Y s 1910 285 m -20 Y s 1934 285 m -20 Y s 1958 285 m -20 Y s 1982 305 m -40 Y s 2006 285 m -20 Y s 2030 285 m -20 Y s 2054 285 m -20 Y s 2078 285 m -20 Y s 2102 305 m -40 Y s
 1141 305 m -40 Y s 2102 305 m -40 Y s black 1 1 1 c
 gsave  2236 2948 0 0 C 1140.64 168.929 t 0 r /Helvetica findfont 73.2523 sf 0 0 m (4) show NC gr  black 1 1 1 c
 gsave  2236 2948 0 0 C 1100.28 168.929 t 0 r /Symbol findfont 73.2523 sf 0 0 m (-) show NC gr  black 1 1 1 c
 gsave  2236 2948 0 0 C 1260.24 168.929 t 0 r /Helvetica findfont 73.2523 sf 0 0 m (3) show NC gr  black 1 1 1 c
 gsave  2236 2948 0 0 C 1221.37 168.929 t 0 r /Symbol findfont 73.2523 sf 0 0 m (-) show NC gr  black 1 1 1 c
 gsave  2236 2948 0 0 C 1379.83 168.929 t 0 r /Helvetica findfont 73.2523 sf 0 0 m (2) show NC gr  black 1 1 1 c
 gsave  2236 2948 0 0 C 1339.47 168.929 t 0 r /Symbol findfont 73.2523 sf 0 0 m (-) show NC gr  black 1 1 1 c
 gsave  2236 2948 0 0 C 1506.9 168.929 t 0 r /Helvetica findfont 73.2523 sf 0 0 m (1) show NC gr  black 1 1 1 c
 gsave  2236 2948 0 0 C 1466.54 168.929 t 0 r /Symbol findfont 73.2523 sf 0 0 m (-) show NC gr  black 1 1 1 c
 gsave  2236 2948 0 0 C 1601.09 168.929 t 0 r /Helvetica findfont 73.2523 sf 0 0 m (0) show NC gr  black 1 1 1 c
 gsave  2236 2948 0 0 C 1726.66 168.929 t 0 r /Helvetica findfont 73.2523 sf 0 0 m (1) show NC gr  black 1 1 1 c
 gsave  2236 2948 0 0 C 1841.77 168.929 t 0 r /Helvetica findfont 73.2523 sf 0 0 m (2) show NC gr  black 1 1 1 c
 gsave  2236 2948 0 0 C 1961.37 168.929 t 0 r /Helvetica findfont 73.2523 sf 0 0 m (3) show NC gr  black 1 1 1 c
 gsave  2236 2948 0 0 C 2082.46 168.929 t 0 r /Helvetica findfont 73.2523 sf 0 0 m (4) show NC gr  black 1118 265 m 2418 Y s
 gsave  2236 2948 0 0 C 266.1 680.2 t 0 r /Helvetica findfont 55.313 sf 0 0 m (FTAG_C0_EMTopoMV2c10PC_H) show NC gr 
 gsave  2236 2948 0 0 C 481.372 756.442 t 0 r /Helvetica findfont 55.313 sf 0 0 m (PRW_DATASF_Rel21_H) show NC gr 
 gsave  2236 2948 0 0 C 442.504 835.674 t 0 r /Helvetica findfont 55.313 sf 0 0 m (TheorySig_BR_param_mB) show NC gr 
 gsave  2236 2948 0 0 C 452.968 913.411 t 0 r /Helvetica findfont 55.313 sf 0 0 m (bbyy_Spurious_SM_2_HH) show NC gr 
 gsave  2236 2948 0 0 C 287.029 992.643 t 0 r /Helvetica findfont 55.313 sf 0 0 m (JES_Flavor_Comp_VH_Rel21_H) show NC gr 
 gsave  2236 2948 0 0 C 192.848 1070.38 t 0 r /Helvetica findfont 55.313 sf 0 0 m (TheorySig_QCDscale_ggF_mig12_H) show NC gr 
 gsave  2236 2948 0 0 C 210.787 1148.12 t 0 r /Helvetica findfont 55.313 sf 0 0 m (BkgTheory_SysVVMbbME_VHbb_H) show NC gr 
 gsave  2236 2948 0 0 C 88.2018 1225.85 t 0 r /Helvetica findfont 55.313 sf 0 0 m (BkgTheory_alpha_ttb_pTbb\255sys_ttHbb_H) show NC gr 
 gsave  2236 2948 0 0 C 291.514 1303.59 t 0 r /Helvetica findfont 55.313 sf 0 0 m (TheorySig_QCDscale_ttH_mu_H) show NC gr 
 gsave  2236 2948 0 0 C 379.716 1381.33 t 0 r /Helvetica findfont 55.313 sf 0 0 m (BkgTheory_ttb_Rad_ttHbb_H) show NC gr 
 gsave  2236 2948 0 0 C 38.8686 1459.07 t 0 r /Helvetica findfont 55.313 sf 0 0 m (TheorySig_QCDscale_qqVHLep_PTV75_H) show NC gr 
 gsave  2236 2948 0 0 C 463.433 1538.3 t 0 r /Helvetica findfont 55.313 sf 0 0 m (TheorySig_UEPS_VBF_H) show NC gr 
 gsave  2236 2948 0 0 C -10.4646 1616.04 t 0 r /Helvetica findfont 55.313 sf 0 0 m (BkgTheory_SysBDTr_W_SHtoMG5_VHbb_H) show NC gr 
 gsave  2236 2948 0 0 C 269.09 1693.77 t 0 r /Helvetica findfont 55.313 sf 0 0 m (FTAG_B0_EMTopoMV2c10PC_H) show NC gr 
 gsave  2236 2948 0 0 C 417.09 1771.51 t 0 r /Helvetica findfont 55.313 sf 0 0 m (bbyy_Spurious_BSM_2_HH) show NC gr 
 gsave  2236 2948 0 0 C 281.05 1849.25 t 0 r /Helvetica findfont 55.313 sf 0 0 m (BkgTheory_ttb_Fraction_ttHbb_H) show NC gr 
 gsave  2236 2948 0 0 C 278.06 1926.98 t 0 r /Helvetica findfont 55.313 sf 0 0 m (BkgTheory_ttb_PS_ljets_ttHbb_H) show NC gr 
 gsave  2236 2948 0 0 C 91.1916 2006.22 t 0 r /Helvetica findfont 55.313 sf 0 0 m (TheorySig_QCDscale_ggF_pTHj_pTH_H) show NC gr 
 gsave  2236 2948 0 0 C 44.8484 2083.95 t 0 r /Helvetica findfont 55.313 sf 0 0 m (BkgTheory_ttb_Gen_0_120_dilep_ttHbb_H) show NC gr 
 gsave  2236 2948 0 0 C 499.312 2161.69 t 0 r /Helvetica findfont 55.313 sf 0 0 m (TheorySig_UEPS_ttH_H) show NC gr 
 gsave  2236 2948 0 0 C -53.818 2239.43 t 0 r /Helvetica findfont 55.313 sf 0 0 m (BkgTheory_ACC_StopWt_TopInterference_HH) show NC gr 
 gsave  2236 2948 0 0 C 62.7877 2317.16 t 0 r /Helvetica findfont 55.313 sf 0 0 m (BkgTheory_ttb_Gen_0_120_ljets_ttHbb_H) show NC gr 
 gsave  2236 2948 0 0 C 426.059 2394.9 t 0 r /Helvetica findfont 55.313 sf 0 0 m (EG_SCALE_ALL_bbyy_HH) show NC gr 
 gsave  2236 2948 0 0 C 417.09 2474.13 t 0 r /Helvetica findfont 55.313 sf 0 0 m (bbyy_Spurious_BSM_1_HH) show NC gr 
 gsave  2236 2948 0 0 C 131.555 2551.87 t 0 r /Helvetica findfont 55.313 sf 0 0 m (TheorySig_ACC_PS_ggFHH_bbbb_HH) show NC gr  1118 265 m cl s 1118 343 m cl s 1118 421 m cl s 1118 499 m cl s 1118 577 m cl s 1118 655 m cl s 1118 733 m cl s 1118 811 m
 cl s 1118 889 m cl s 1118 967 m cl s 1118 1045 m cl s 1118 1123 m cl s 1118 1201 m cl s 1118 1279 m cl s 1118 1357 m cl s 1118 1435 m cl s 1118 1513 m cl s 1118 1591 m cl s 1118 1669 m cl s 1118 1747 m cl s 1118 1825 m cl s 1118 1903 m cl s 1118
 1981 m cl s 1118 2059 m cl s 1118 2137 m cl s 1118 2215 m cl s 1118 2293 m cl s 1118 2371 m cl s 1118 2449 m cl s 1118 2527 m cl s 1118 2605 m cl s 1118 2683 m cl s 0.9 0.9 0.9 c 1 lw << /PatternType 1 /PaintType 2 /TilingType 1 /BBox [ 0 0 98 4 ]
 /XStep 98 /YStep 4 /PaintProc { begin gsave [1] 0 sd 2 4 m 99 4 l s 1 3 m 98 3 l s 2 2 m 99 2 l s 1 1 m 98 1 l s gr end } >> [ 4.0 0 0 4.0 0 0 ] makepattern /P01 exch def /cs {[/Pattern /DeviceRGB] setcolorspace} def /FA {f [/DeviceRGB]
 setcolorspace} def cs 0.9 0.9 0.9 P01 setcolor 1118 655 m 1007 X 78 Y -1007 X FA 3 lw 0.9 0.9 0.9 c cs 0.9 0.9 0.9 P01 setcolor 1118 811 m 1007 X 78 Y -1007 X FA 0.9 0.9 0.9 c cs 0.9 0.9 0.9 P01 setcolor 1118 967 m 1007 X 78 Y -1007 X FA 0.9 0.9 0.9
 c cs 0.9 0.9 0.9 P01 setcolor 1118 1123 m 1007 X 78 Y -1007 X FA 0.9 0.9 0.9 c cs 0.9 0.9 0.9 P01 setcolor 1118 1279 m 1007 X 78 Y -1007 X FA 0.9 0.9 0.9 c cs 0.9 0.9 0.9 P01 setcolor 1118 1435 m 1007 X 78 Y -1007 X FA 0.9 0.9 0.9 c cs 0.9 0.9 0.9
 P01 setcolor 1118 1591 m 1007 X 78 Y -1007 X FA 0.9 0.9 0.9 c cs 0.9 0.9 0.9 P01 setcolor 1118 1747 m 1007 X 78 Y -1007 X FA 0.9 0.9 0.9 c cs 0.9 0.9 0.9 P01 setcolor 1118 1903 m 1007 X 78 Y -1007 X FA 0.9 0.9 0.9 c cs 0.9 0.9 0.9 P01 setcolor 1118
 2059 m 1007 X 78 Y -1007 X FA 0.9 0.9 0.9 c cs 0.9 0.9 0.9 P01 setcolor 1118 2215 m 1007 X 78 Y -1007 X FA 0.9 0.9 0.9 c cs 0.9 0.9 0.9 P01 setcolor 1118 2371 m 1007 X 78 Y -1007 X FA 0.9 0.9 0.9 c cs 0.9 0.9 0.9 P01 setcolor 1118 2527 m 1007 X 78 Y
 -1007 X FA 0.9 0.9 0.9 c black 0 0.6 1 c 0 39 1621 655 bf 0 39 1621 694 bf 67 39 1587 733 bf 67 39 1587 772 bf 75 39 1583 811 bf 75 39 1583 850 bf 0 39 1621 889 bf 0 39 1621 928 bf 0 39 1621 967 bf 0 39 1621 1006 bf 79 39 1581 1045 bf 79 39 1581
 1084 bf 80 39 1579 1123 bf 80 39 1579 1162 bf 0 39 1621 1201 bf 0 39 1621 1240 bf 0 39 1621 1279 bf 0 39 1621 1318 bf 0 39 1621 1357 bf 0 39 1621 1396 bf 89 39 1578 1435 bf 89 39 1578 1474 bf 0 39 1621 1513 bf 0 39 1621 1552 bf 101 39 1570 1591 bf
 101 39 1570 1630 bf 0 39 1621 1669 bf 0 39 1621 1708 bf 0 39 1621 1747 bf 0 39 1621 1786 bf 123 39 1566 1825 bf 123 39 1566 1864 bf 0 39 1621 1903 bf 0 39 1621 1942 bf 136 39 1557 1981 bf 136 39 1557 2020 bf 0 39 1621 2059 bf 0 39 1621 2098 bf 145
 39 1545 2137 bf 145 39 1545 2176 bf 0 39 1621 2215 bf 0 39 1621 2254 bf 0 39 1621 2293 bf 0 39 1621 2332 bf 315 39 1421 2371 bf 315 39 1421 2410 bf 0 39 1621 2449 bf 0 39 1621 2488 bf 0 39 1621 2527 bf 0 39 1621 2566 bf black 0.266667 1 0.580392 c
 62 39 1590 655 bf 62 39 1590 694 bf 0 39 1621 733 bf 0 39 1621 772 bf 0 39 1621 811 bf 0 39 1621 850 bf 75 39 1586 889 bf 75 39 1586 928 bf 75 39 1584 967 bf 75 39 1584 1006 bf 0 39 1621 1045 bf 0 39 1621 1084 bf 0 39 1621 1123 bf 0 39 1621 1162 bf
 80 39 1584 1201 bf 80 39 1584 1240 bf 82 39 1577 1279 bf 82 39 1577 1318 bf 83 39 1583 1357 bf 83 39 1583 1396 bf 0 39 1621 1435 bf 0 39 1621 1474 bf 100 39 1575 1513 bf 100 39 1575 1552 bf 0 39 1621 1591 bf 0 39 1621 1630 bf 111 39 1566 1669 bf 111
 39 1566 1708 bf 118 39 1568 1747 bf 118 39 1568 1786 bf 0 39 1621 1825 bf 0 39 1621 1864 bf 127 39 1560 1903 bf 127 39 1560 1942 bf 0 39 1621 1981 bf 0 39 1621 2020 bf 141 39 1555 2059 bf 141 39 1555 2098 bf 0 39 1621 2137 bf 0 39 1621 2176 bf 181
 39 1517 2215 bf 181 39 1517 2254 bf 302 39 1472 2293 bf 302 39 1472 2332 bf 0 39 1621 2371 bf 0 39 1621 2410 bf 437 39 1463 2449 bf 437 39 1463 2488 bf 558 39 1301 2527 bf 558 39 1301 2566 bf black 0 0.00392157 0.333333 c 3 lw 0 39 1621 655 bl 0 39
 1621 694 bl 79 39 1581 733 bl 79 39 1581 772 bl 76 39 1582 811 bl 76 39 1582 850 bl 0 39 1621 889 bl 0 39 1621 928 bl 0 39 1621 967 bl 0 39 1621 1006 bl 93 39 1574 1045 bl 93 39 1574 1084 bl 102 39 1566 1123 bl 102 39 1566 1162 bl 0 39 1621 1201 bl
 0 39 1621 1240 bl 0 39 1621 1279 bl 0 39 1621 1318 bl 0 39 1621 1357 bl 0 39 1621 1396 bl 90 39 1578 1435 bl 90 39 1578 1474 bl 0 39 1621 1513 bl 0 39 1621 1552 bl 130 39 1555 1591 bl 130 39 1555 1630 bl 0 39 1621 1669 bl 0 39 1621 1708 bl 0 39 1621
 1747 bl 0 39 1621 1786 bl 340 39 1508 1825 bl 340 39 1508 1864 bl 0 39 1621 1903 bl 0 39 1621 1942 bl 177 39 1539 1981 bl 177 39 1539 2020 bl 0 39 1621 2059 bl 0 39 1621 2098 bl 149 39 1543 2137 bl 149 39 1543 2176 bl 0 39 1621 2215 bl 0 39 1621
 2254 bl 0 39 1621 2293 bl 0 39 1621 2332 bl 312 39 1423 2371 bl 312 39 1423 2410 bl 0 39 1621 2449 bl 0 39 1621 2488 bl 0 39 1621 2527 bl 0 39 1621 2566 bl black 0.00784314 0.466667 0.203922 c 89 39 1577 655 bl 89 39 1577 694 bl 0 39 1621 733 bl 0
 39 1621 772 bl 0 39 1621 811 bl 0 39 1621 850 bl 81 39 1584 889 bl 81 39 1584 928 bl 75 39 1585 967 bl 75 39 1585 1006 bl 0 39 1621 1045 bl 0 39 1621 1084 bl 0 39 1621 1123 bl 0 39 1621 1162 bl 192 39 1553 1201 bl 192 39 1553 1240 bl 84 39 1576 1279
 bl 84 39 1576 1318 bl 227 39 1518 1357 bl 227 39 1518 1396 bl 0 39 1621 1435 bl 0 39 1621 1474 bl 158 39 1556 1513 bl 158 39 1556 1552 bl 0 39 1621 1591 bl 0 39 1621 1630 bl 149 39 1547 1669 bl 149 39 1547 1708 bl 121 39 1567 1747 bl 121 39 1567
 1786 bl 0 39 1621 1825 bl 0 39 1621 1864 bl 278 39 1494 1903 bl 278 39 1494 1942 bl 0 39 1621 1981 bl 0 39 1621 2020 bl 193 39 1534 2059 bl 193 39 1534 2098 bl 0 39 1621 2137 bl 0 39 1621 2176 bl 216 39 1500 2215 bl 216 39 1500 2254 bl 662 39 1297
 2293 bl 662 39 1297 2332 bl 0 39 1621 2371 bl 0 39 1621 2410 bl 476 39 1455 2449 bl 476 39 1455 2488 bl 560 39 1301 2527 bl 560 39 1301 2566 bl black 1118 2683 m 1007 X s 1219 2643 m 40 Y s 1259 2663 m 20 Y s 1299 2663 m 20 Y s 1340 2663 m 20 Y s
 1380 2663 m 20 Y s 1420 2643 m 40 Y s 1460 2663 m 20 Y s 1501 2663 m 20 Y s 1541 2663 m 20 Y s 1581 2663 m 20 Y s 1621 2643 m 40 Y s 1662 2663 m 20 Y s 1702 2663 m 20 Y s 1742 2663 m 20 Y s 1782 2663 m 20 Y s 1823 2643 m 40 Y s 1863 2663 m 20 Y s
 1903 2663 m 20 Y s 1943 2663 m 20 Y s 1984 2663 m 20 Y s 2024 2643 m 40 Y s 1219 2643 m 40 Y s 1179 2663 m 20 Y s 1138 2663 m 20 Y s 2024 2643 m 40 Y s 2064 2663 m 20 Y s 2104 2663 m 20 Y s
 gsave  2236 2948 0 0 C 1194.46 2707.35 t 0 r /Helvetica findfont 70.2624 sf 0 0 m (0.1) show NC gr 
 gsave  2236 2948 0 0 C 1157.09 2707.35 t 0 r /Symbol findfont 70.2624 sf 0 0 m (-) show NC gr 
 gsave  2236 2948 0 0 C 1369.37 2707.35 t 0 r /Helvetica findfont 70.2624 sf 0 0 m (0.05) show NC gr 
 gsave  2236 2948 0 0 C 1332 2707.35 t 0 r /Symbol findfont 70.2624 sf 0 0 m (-) show NC gr 
 gsave  2236 2948 0 0 C 1602.58 2707.35 t 0 r /Helvetica findfont 70.2624 sf 0 0 m (0) show NC gr 
 gsave  2236 2948 0 0 C 1755.07 2707.35 t 0 r /Helvetica findfont 70.2624 sf 0 0 m (0.05) show NC gr 
 gsave  2236 2948 0 0 C 1980.8 2707.35 t 0 r /Helvetica findfont 70.2624 sf 0 0 m (0.1) show NC gr 
 gsave  2236 2948 0 0 C 2097.41 2817.97 t 0 r /Symbol findfont 47.8382 sf 0 0 m (l) show NC gr 
 gsave  2236 2948 0 0 C 2057.04 2838.9 t 0 r /Symbol findfont 70.2624 sf 0 0 m (k) show NC gr  6 lw 2068 2888 m 22 11 d s 2090 2899 m 22 -11 d s
 gsave  2236 2948 0 0 C 2012.2 2838.9 t 0 r /Helvetica findfont 70.2624 sf 0 0 m (\)/) show NC gr 
 gsave  2236 2948 0 0 C 1985.29 2817.97 t 0 r /Symbol findfont 47.8382 sf 0 0 m (l) show NC gr 
 gsave  2236 2948 0 0 C 1944.92 2838.9 t 0 r /Symbol findfont 70.2624 sf 0 0 m (k) show NC gr  1955 2888 m 23 11 d s 1978 2899 m 22 -11 d s
 gsave  2236 2948 0 0 C 1901.57 2838.9 t 0 r /Symbol findfont 70.2624 sf 0 0 m (D) show NC gr 
 gsave  2236 2948 0 0 C 1880.64 2838.9 t 0 r /Helvetica findfont 70.2624 sf 0 0 m (\() show NC gr  3 lw 1118 265 m 1007 X s 1141 305 m -40 Y s 1165 285 m -20 Y s 1189 285 m -20 Y s 1213 285 m -20 Y s 1237 285 m -20 Y s 1261 305 m -40 Y s 1285 285 m
 -20 Y s 1309 285 m -20 Y s 1333 285 m -20 Y s 1357 285 m -20 Y s 1381 305 m -40 Y s 1405 285 m -20 Y s 1429 285 m -20 Y s 1453 285 m -20 Y s 1477 285 m -20 Y s 1501 305 m -40 Y s 1525 285 m -20 Y s 1549 285 m -20 Y s 1573 285 m -20 Y s 1597 285 m
 -20 Y s 1621 305 m -40 Y s 1645 285 m -20 Y s 1669 285 m -20 Y s 1694 285 m -20 Y s 1718 285 m -20 Y s 1742 305 m -40 Y s 1766 285 m -20 Y s 1790 285 m -20 Y s 1814 285 m -20 Y s 1838 285 m -20 Y s 1862 305 m -40 Y s 1886 285 m -20 Y s 1910 285 m
 -20 Y s 1934 285 m -20 Y s 1958 285 m -20 Y s 1982 305 m -40 Y s 2006 285 m -20 Y s 2030 285 m -20 Y s 2054 285 m -20 Y s 2078 285 m -20 Y s 2102 305 m -40 Y s 1141 305 m -40 Y s 2102 305 m -40 Y s
 gsave  2236 2948 0 0 C 1140.64 170.424 t 0 r /Helvetica findfont 70.2624 sf 0 0 m (2) show NC gr 
 gsave  2236 2948 0 0 C 1101.77 170.424 t 0 r /Symbol findfont 70.2624 sf 0 0 m (-) show NC gr 
 gsave  2236 2948 0 0 C 1230.34 170.424 t 0 r /Helvetica findfont 70.2624 sf 0 0 m (1.5) show NC gr 
 gsave  2236 2948 0 0 C 1192.97 170.424 t 0 r /Symbol findfont 70.2624 sf 0 0 m (-) show NC gr 
 gsave  2236 2948 0 0 C 1385.81 170.424 t 0 r /Helvetica findfont 70.2624 sf 0 0 m (1) show NC gr 
 gsave  2236 2948 0 0 C 1346.95 170.424 t 0 r /Symbol findfont 70.2624 sf 0 0 m (-) show NC gr 
 gsave  2236 2948 0 0 C 1471.03 170.424 t 0 r /Helvetica findfont 70.2624 sf 0 0 m (0.5) show NC gr 
 gsave  2236 2948 0 0 C 1433.65 170.424 t 0 r /Symbol findfont 70.2624 sf 0 0 m (-) show NC gr 
 gsave  2236 2948 0 0 C 1602.58 170.424 t 0 r /Helvetica findfont 70.2624 sf 0 0 m (0) show NC gr 
 gsave  2236 2948 0 0 C 1692.28 170.424 t 0 r /Helvetica findfont 70.2624 sf 0 0 m (0.5) show NC gr 
 gsave  2236 2948 0 0 C 1847.75 170.424 t 0 r /Helvetica findfont 70.2624 sf 0 0 m (1) show NC gr 
 gsave  2236 2948 0 0 C 1932.96 170.424 t 0 r /Helvetica findfont 70.2624 sf 0 0 m (1.5) show NC gr 
 gsave  2236 2948 0 0 C 2082.46 170.424 t 0 r /Helvetica findfont 70.2624 sf 0 0 m (2) show NC gr 
 gsave  2236 2948 0 0 C 2089.93 62.7877 t 0 r /Symbol findfont 70.2624 sf 0 0 m (q) show NC gr 
 gsave  2236 2948 0 0 C 2046.58 62.7877 t 0 r /Symbol findfont 70.2624 sf 0 0 m (D) show NC gr 
 gsave  2236 2948 0 0 C 2001.73 62.7877 t 0 r /Helvetica findfont 70.2624 sf 0 0 m (\)/) show NC gr 
 gsave  2236 2948 0 0 C 1976.32 41.8585 t 0 r /Helvetica findfont 47.8382 sf 0 0 m (0) show NC gr 
 gsave  2236 2948 0 0 C 1941.93 62.7877 t 0 r /Symbol findfont 70.2624 sf 0 0 m (q) show NC gr 
 gsave  2236 2948 0 0 C 1877.65 62.7877 t 0 r /Helvetica findfont 70.2624 sf 0 0 m ( \255 ) show NC gr 
 gsave  2236 2948 0 0 C 1843.27 62.7877 t 0 r /Symbol findfont 70.2624 sf 0 0 m (q) show NC gr  6 lw 1848 112 m 12 11 d s 1860 123 m 12 -11 d s
 gsave  2236 2948 0 0 C 1822.34 62.7877 t 0 r /Helvetica findfont 70.2624 sf 0 0 m (\() show NC gr  3 lw 1118 655 m 2028 Y s 0.6 0.6 0.6 c[ 12 12] 0 sd 6 lw 1621 655 m 1950 Y s 1862 655 m 1950 Y s 1381 655 m 1950 Y s 1 0 0 c[  ] 0 sd 3 lw 1634 694 m
 -241 X s 1393 687 m 15 Y s 1634 694 m 240 X s 1874 687 m 15 Y s 1657 772 m -240 X s 1417 765 m 15 Y s 1657 772 m 240 X s 1897 765 m 15 Y s 1587 850 m -240 X s 1347 843 m 15 Y s 1587 850 m 240 X s 1827 843 m 15 Y s 1729 928 m -240 X s 1489 921 m 15 Y
 s 1729 928 m 241 X s 1970 921 m 15 Y s 1585 1006 m -240 X s 1345 999 m 15 Y s 1585 1006 m 241 X s 1826 999 m 15 Y s 1620 1084 m -240 X s 1380 1077 m 15 Y s 1620 1084 m 241 X s 1861 1077 m 15 Y s 1658 1162 m -240 X s 1418 1155 m 15 Y s 1658 1162 m
 241 X s 1899 1155 m 15 Y s 1863 1240 m -241 X s 1622 1233 m 15 Y s 1863 1240 m 240 X s 2103 1233 m 15 Y s 1527 1318 m -240 X s 1287 1311 m 15 Y s 1527 1318 m 240 X s 1767 1311 m 15 Y s 1981 1396 m -241 X s 1740 1389 m 15 Y s 1981 1396 m 144 X s 1628
 1474 m -241 X s 1387 1467 m 14 Y s 1628 1474 m 240 X s 1868 1467 m 14 Y s 1524 1552 m -241 X s 1283 1545 m 14 Y s 1524 1552 m 240 X s 1764 1545 m 14 Y s 1502 1630 m -241 X s 1261 1623 m 14 Y s 1502 1630 m 240 X s 1742 1623 m 14 Y s 1707 1708 m -240
 X s 1467 1700 m 15 Y s 1707 1708 m 240 X s 1947 1700 m 15 Y s 1522 1786 m -240 X s 1282 1778 m 15 Y s 1522 1786 m 240 X s 1762 1778 m 15 Y s 1722 1864 m -240 X s 1482 1856 m 15 Y s 1722 1864 m 241 X s 1963 1856 m 15 Y s 1573 1942 m -241 X s 1332
 1934 m 15 Y s 1573 1942 m 240 X s 1813 1934 m 15 Y s 1644 2020 m -240 X s 1404 2012 m 15 Y s 1644 2020 m 241 X s 1885 2012 m 15 Y s 1755 2098 m -240 X s 1515 2090 m 15 Y s 1755 2098 m 241 X s 1996 2090 m 15 Y s 1724 2176 m -240 X s 1484 2168 m 15 Y
 s 1724 2176 m 241 X s 1965 2168 m 15 Y s 1534 2254 m -240 X s 1294 2246 m 15 Y s 1534 2254 m 240 X s 1774 2246 m 15 Y s 1422 2332 m -240 X s 1182 2324 m 15 Y s 1422 2332 m 240 X s 1662 2324 m 15 Y s 1568 2410 m -240 X s 1328 2402 m 15 Y s 1568 2410
 m 240 X s 1808 2402 m 15 Y s 1658 2488 m -241 X s 1417 2480 m 15 Y s 1658 2488 m 240 X s 1898 2480 m 15 Y s 1598 2566 m -240 X s 1358 2558 m 15 Y s 1598 2566 m 240 X s 1838 2558 m 15 Y s 1 1 1 c 1 0 0 c /w 2 def /w2 {w 2 div} def /w3 {w 3 div} def
 1634 694 1657 772 1587 850 1729 928 1585 1006 1620 1084 1658 1162 1863 1240 1527 1318 1981 1396 1628 1474 1524 1552 1502 1630 1707 1708 1522 1786 1722 1864 1573 1942 1644 2020 1755 2098 1724 2176 1534 2254 1422 2332 1568 2410 1658 2488 1598 2566 25
 { m20} R black 1628 694 m -159 X s 1469 687 m 15 Y s 1640 694 m 166 X s 1806 687 m 15 Y s 1651 772 m -197 X s 1454 765 m 15 Y s 1663 772 m 197 X s 1860 765 m 15 Y s 1581 850 m -231 X s 1350 843 m 15 Y s 1593 850 m 230 X s 1823 843 m 15 Y s 1723 928
 m -221 X s 1502 921 m 15 Y s 1735 928 m 223 X s 1958 921 m 15 Y s 1579 1006 m -231 X s 1348 999 m 15 Y s 1591 1006 m 242 X s 1833 999 m 15 Y s 1614 1084 m -197 X s 1417 1077 m 15 Y s 1626 1084 m 199 X s 1825 1077 m 15 Y s 1652 1162 m -175 X s 1477
 1155 m 15 Y s 1664 1162 m 189 X s 1853 1155 m 15 Y s 1857 1240 m -84 X s 1773 1233 m 15 Y s 1869 1240 m 86 X s 1955 1233 m 15 Y s 1521 1318 m -223 X s 1298 1311 m 15 Y s 1533 1318 m 229 X s 1762 1311 m 15 Y s 1975 1396 m -92 X s 1883 1389 m 15 Y s
 1987 1396 m 94 X s 2081 1389 m 15 Y s 1622 1474 m -231 X s 1391 1467 m 14 Y s 1634 1474 m 231 X s 1865 1467 m 14 Y s 1518 1552 m -150 X s 1368 1545 m 14 Y s 1530 1552 m 155 X s 1685 1545 m 14 Y s 1496 1630 m -181 X s 1315 1623 m 14 Y s 1508 1630 m
 182 X s 1690 1623 m 14 Y s 1701 1708 m -173 X s 1528 1700 m 15 Y s 1713 1708 m 175 X s 1888 1700 m 15 Y s 1516 1786 m -230 X s 1286 1778 m 15 Y s 1528 1786 m 230 X s 1758 1778 m 15 Y s 1716 1864 m -76 X s 1640 1856 m 15 Y s 1728 1864 m 74 X s 1802
 1856 m 15 Y s 1567 1942 m -105 X s 1462 1934 m 15 Y s 1579 1942 m 106 X s 1685 1934 m 15 Y s 1638 2020 m -173 X s 1465 2012 m 15 Y s 1650 2020 m 183 X s 1833 2012 m 15 Y s 1749 2098 m -169 X s 1580 2090 m 15 Y s 1761 2098 m 173 X s 1934 2090 m 15 Y
 s 1718 2176 m -230 X s 1488 2168 m 15 Y s 1730 2176 m 226 X s 1956 2168 m 15 Y s 1528 2254 m -185 X s 1343 2246 m 15 Y s 1540 2254 m 202 X s 1742 2246 m 15 Y s 1416 2332 m -103 X s 1313 2324 m 15 Y s 1428 2332 m 101 X s 1529 2324 m 15 Y s 1562 2410
 m -236 X s 1326 2402 m 15 Y s 1574 2410 m 238 X s 1812 2402 m 15 Y s 1652 2488 m -218 X s 1434 2480 m 15 Y s 1664 2488 m 220 X s 1884 2480 m 15 Y s 1592 2566 m -233 X s 1359 2558 m 15 Y s 1604 2566 m 235 X s 1839 2558 m 15 Y s 1 1 1 c black /w 12
 def /w2 {w 2 div} def /w3 {w 3 div} def 1634 694 1657 772 1587 850 1729 928 1585 1006 1620 1084 1658 1162 1863 1240 1527 1318 1981 1396 1628 1474 1524 1552 1502 1630 1707 1708 1522 1786 1722 1864 1573 1942 1644 2020 1755 2098 1724 2176 1534 2254
 1422 2332 1568 2410 1658 2488 1598 2566 25 { m20} R
 gsave  2236 2948 0 0 C 1654.9 568.079 t 0 r /Helvetica findfont 46.3433 sf 0 0 m (Pull) show NC gr  1465 583 m 156 X s 1543 583 m20
 gsave  2236 2948 0 0 C 1654.9 496.322 t 0 r /Helvetica findfont 46.3433 sf 0 0 m (1 standard deviation) show NC gr  1 0 0 c 1465 511 m 156 X s black
 gsave  2236 2948 0 0 C 2019.67 411.11 t 0 r /Symbol findfont 31.3938 sf 0 0 m (l) show NC gr 
 gsave  2236 2948 0 0 C 1992.76 424.564 t 0 r /Symbol findfont 46.3433 sf 0 0 m (k) show NC gr  6 lw 2000 457 m 15 8 d s 2015 465 m 15 -8 d s
 gsave  2236 2948 0 0 C 1654.9 424.564 t 0 r /Helvetica findfont 46.3433 sf 0 0 m (Prefit Impact on ) show NC gr  0 0.00392157 0.333333 c 3 lw 1465 414 m 156 X 51 Y -156 X cl s 6 lw 3 lw 1465 465 m 156 X s 1465 414 m 156 X s 1621 414 m 51 Y s 1465
 414 m 51 Y s black
 gsave  2236 2948 0 0 C 2040.6 339.353 t 0 r /Symbol findfont 31.3938 sf 0 0 m (l) show NC gr 
 gsave  2236 2948 0 0 C 2013.69 352.807 t 0 r /Symbol findfont 46.3433 sf 0 0 m (k) show NC gr  6 lw 2021 386 m 15 7 d s 2036 393 m 15 -7 d s
 gsave  2236 2948 0 0 C 1654.9 352.807 t 0 r /Helvetica findfont 46.3433 sf 0 0 m (Postfit Impact on ) show NC gr  0 0.6 1 c 3 lw 1465 342 m 156 X 51 Y -156 X f 6 lw black
 gsave  2236 2948 0 0 C 110.626 545.655 t 0 r /Helvetica-BoldOblique findfont 73.2523 sf 0 0 m (ATLAS) show NC gr 
 gsave  2236 2948 0 0 C 385.696 545.655 t 0 r /Helvetica findfont 73.2523 sf 0 0 m (Internal) show NC gr 
 gsave  2236 2948 0 0 C 705.614 497.817 t 0 r /Helvetica findfont 49.3332 sf 0 0 m (\2551) show NC gr 
 gsave  2236 2948 0 0 C 183.878 464.928 t 0 r /Helvetica findfont 73.2523 sf 0 0 m (=13 TeV, 139 fb) show NC gr 
 gsave  2236 2948 0 0 C 149.495 464.928 t 0 r /Helvetica findfont 73.2523 sf 0 0 m (s) show NC gr  6 lw 126 505 m 7 -43 d s 3 lw 133 462 m 8 64 d s 141 526 m 43 X s
 gsave  2236 2948 0 0 C 110.626 384.201 t 0 r /Helvetica findfont 73.2523 sf 0 0 m (HH+H) show NC gr 
 gsave  2236 2948 0 0 C 110.626 303.474 t 0 r /Helvetica findfont 73.2523 sf 0 0 m (Observed) show NC gr 
 gr  gr showpage
end
%%EOF
