%!PS-Adobe-2.0 EPSF-2.0
%%BoundingBox:  0 0 559 737
%%Title: figures/ranking_klambda_rank_0001_to_0025_HH_kl.eps: c1
%%Creator: ROOT Version 6.24/06
%%CreationDate: Wed Jun 29 08:55:21 2022
%%DocumentNeededResources: ProcSet (FontSetInit)
%%EndComments
%%BeginProlog
80 dict begin
/s {stroke} def /l {lineto} def /m {moveto} def /t {translate} def
/r {rotate} def /rl {roll}  def /R {repeat} def
/d {rlineto} def /rm {rmoveto} def /gr {grestore} def /f {eofill} def
/c {setrgbcolor} def /black {0 setgray} def /sd {setdash} def
/cl {closepath} def /sf {scalefont setfont} def /lw {setlinewidth} def
/box {m dup 0 exch d exch 0 d 0 exch neg d cl} def
/NC{systemdict begin initclip end}def/C{NC box clip newpath}def
/bl {box s} def /bf {gsave box gsave f grestore 1 lw [] 0 sd s grestore} def /Y { 0 exch d} def /X { 0 d} def 
/K {{pop pop 0 moveto} exch kshow} bind def
/ita {/ang 15 def gsave [1 0 ang dup sin exch cos div 1 0 0] concat} def 
/mp {newpath /y exch def /x exch def} def
/side {[w .77 mul w .23 mul] .385 w mul sd w 0 l currentpoint t -144 r} def
/mr {mp x y w2 0 360 arc} def /m24 {mr s} def /m20 {mr f} def
/mb {mp x y w2 add m w2 neg 0 d 0 w neg d w 0 d 0 w d cl} def
/mt {mp x y w2 add m w2 neg w neg d w 0 d cl} def
/w4 {w 4 div} def
/w6 {w 6 div} def
/w8 {w 8 div} def
/m21 {mb f} def /m25 {mb s} def /m22 {mt f} def /m26{mt s} def
/m23 {mp x y w2 sub m w2 w d w neg 0 d cl f} def
/m27 {mp x y w2 add m w3 neg w2 neg d w3 w2 neg d w3 w2 d cl s} def
/m28 {mp x w2 sub y w2 sub w3 add m w3 0 d  0 w3 neg d w3 0 d 0 w3 d w3 0 d  0 w3 d w3 neg 0 d 0 w3 d w3 neg 0 d 0 w3 neg d w3 neg 0 d cl s } def
/m29 {mp gsave x w2 sub y w2 add w3 sub m currentpoint t 4 {side} repeat cl fill gr} def
/m30 {mp gsave x w2 sub y w2 add w3 sub m currentpoint t 4 {side} repeat cl s gr} def
/m31 {mp x y w2 sub m 0 w d x w2 sub y m w 0 d x w2 .707 mul sub y w2 .707 mul add m w 1.44 div w 1.44 div neg d x w2 .707 mul sub y w2 .707 mul sub m w 1.44 div w 1.44 div d s} def
/m32 {mp x y w2 sub m w2 w d w neg 0 d cl s} def
/m33 {mp x y w2 add m w3 neg w2 neg d w3 w2 neg d w3 w2 d cl f} def
/m34 {mp x w2 sub y w2 sub w3 add m w3 0 d  0 w3 neg d w3 0 d 0 w3 d w3 0 d  0 w3 d w3 neg 0 d 0 w3 d w3 neg 0 d 0 w3 neg d w3 neg 0 d cl f } def
/m35 {mp x y w2 add m w2 neg w2 neg d w2 w2 neg d w2 w2 d w2 neg w2 d x y w2 sub m 0 w d x w2 sub y m w 0 d s} def
/m36 {mb x w2 sub y w2 add m w w neg d x w2 sub y w2 sub m w w d s} def
/m37 {mp x y m w4 neg w2 d w4 neg w2 neg d w2 0 d  w4 neg w2 neg d w2 0 d w4 neg w2 d w2 0 d w4 neg w2 d w4 neg w2 neg d cl s} def
/m38 {mp x w4 sub y w2 add m w4 neg w4 neg d 0 w2 neg d w4 w4 neg d w2 0 d w4 w4 d 0 w2 d w4 neg w4 d w2 neg 0 d x y w2 sub m 0 w d x w2 sub y m w 0 d cl s} def
/m39 {mp x y m w4 neg w2 d w4 neg w2 neg d w2 0 d  w4 neg w2 neg d w2 0 d w4 neg w2 d w2 0 d w4 neg w2 d w4 neg w2 neg d cl f} def
/m40 {mp x y m w4 w2 d w4 w4 neg d w2 neg w4 neg d w2 w4 neg d w4 neg w4 neg d w4 neg w2 d w4 neg w2 neg d w4 neg w4 d w2 w4 d w2 neg w4 d w4 w4 d w4 w2 neg d cl s} def
/m41 {mp x y m w4 w2 d w4 w4 neg d w2 neg w4 neg d w2 w4 neg d w4 neg w4 neg d w4 neg w2 d w4 neg w2 neg d w4 neg w4 d w2 w4 d w2 neg w4 d w4 w4 d w4 w2 neg d cl f} def
/m42 {mp x y w2 add m w8 neg w2 -3 4 div mul d w2 -3 4 div mul w8 neg d w2 3 4 div mul w8 neg d w8 w2 -3 4 div mul d w8 w2 3 4 div mul d w2 3 4 div mul w8 d w2 -3 4 div mul w8 d w8 neg w2 3 4 div mul d cl s} def
/m43 {mp x y w2 add m w8 neg w2 -3 4 div mul d w2 -3 4 div mul w8 neg d w2 3 4 div mul w8 neg d w8 w2 -3 4 div mul d w8 w2 3 4 div mul d w2 3 4 div mul w8 d w2 -3 4 div mul w8 d w8 neg w2 3 4 div mul d cl f} def
/m44 {mp x y m w6 neg w2 d w2 2 3 div mul 0 d w6 neg w2 neg d w2 w6 d 0 w2 -2 3 div mul d w2 neg w6 d w6 w2 neg d w2 -2 3 div mul 0 d w6 w2 d w2 neg w6 neg d 0 w2 2 3 div mul d w2 w6 neg d cl s} def
/m45 {mp x y m w6 neg w2 d w2 2 3 div mul 0 d w6 neg w2 neg d w2 w6 d 0 w2 -2 3 div mul d w2 neg w6 d w6 w2 neg d w2 -2 3 div mul 0 d w6 w2 d w2 neg w6 neg d 0 w2 2 3 div mul d w2 w6 neg d cl f} def
/m46 {mp x y w4 add m w4 neg w4 d w4 neg w4 neg d  w4 w4 neg d w4 neg w4 neg d w4 w4 neg d w4 w4 d w4 w4 neg d w4 w4 d w4 neg w4 d w4 w4 d w4 neg w4 d w4 neg w4 neg d cl s} def
/m47 {mp x y w4 add m w4 neg w4 d w4 neg w4 neg d w4 w4 neg d w4 neg w4 neg d  w4 w4 neg d w4 w4 d w4 w4 neg d w4 w4 d w4 neg w4 d w4 w4 d w4 neg w4 d w4 neg w4 neg d cl f} def
/m48 {mp x y w4 add m w4 neg w4 d w4 neg w4 neg d w4 w4 neg d  w4 neg w4 neg d w4 w4 neg d w4 w4 d w4 w4 neg d w4 w4 d w4 neg w4 d w4 w4 d w4 neg w4 d w4 neg w4 neg d  w4 w4 neg d w4 neg w4 neg d w4 neg w4 d w4 w4 d cl f} def
/m49 {mp x w2 sub w3 add y w2 sub w3 add m  0 w3 neg d w3 0 d 0 w3 d w3 0 d 0 w3 d w3 neg 0 d 0 w3 d w3 neg 0 d 0 w3 neg d w3 neg 0 d 0 w3 neg d w3 0 d 0 w3 d w3 0 d 0 w3 neg d w3 neg 0 d cl f } def
/m2 {mp x y w2 sub m 0 w d x w2 sub y m w 0 d s} def
/m5 {mp x w2 .707 mul sub y w2 .707 mul sub m w 1.44 div w 1.44 div d x w2 .707 mul sub y w2 .707 mul add m w 1.44 div w 1.44 div neg d s} def
%%IncludeResource: ProcSet (FontSetInit)
%%IncludeResource: font Times-Roman
%%IncludeResource: font Times-Italic
%%IncludeResource: font Times-Bold
%%IncludeResource: font Times-BoldItalic
%%IncludeResource: font Helvetica
%%IncludeResource: font Helvetica-Oblique
%%IncludeResource: font Helvetica-Bold
%%IncludeResource: font Helvetica-BoldOblique
%%IncludeResource: font Courier
%%IncludeResource: font Courier-Oblique
%%IncludeResource: font Courier-Bold
%%IncludeResource: font Courier-BoldOblique
%%IncludeResource: font Symbol
%%IncludeResource: font ZapfDingbats
/reEncode {exch findfont dup length dict begin {1 index /FID eq  {pop pop} {def} ifelse } forall /Encoding exch def currentdict end dup /FontName get exch definefont pop } def [/Times-Bold /Times-Italic /Times-BoldItalic /Helvetica /Helvetica-Oblique
 /Helvetica-Bold /Helvetica-BoldOblique /Courier /Courier-Oblique /Courier-Bold /Courier-BoldOblique /Times-Roman /AvantGarde-Book /AvantGarde-BookOblique /AvantGarde-Demi /AvantGarde-DemiOblique /Bookman-Demi /Bookman-DemiItalic /Bookman-Light
 /Bookman-LightItalic /Helvetica-Narrow /Helvetica-Narrow-Bold /Helvetica-Narrow-BoldOblique /Helvetica-Narrow-Oblique /NewCenturySchlbk-Roman /NewCenturySchlbk-Bold /NewCenturySchlbk-BoldItalic /NewCenturySchlbk-Italic /Palatino-Bold
 /Palatino-BoldItalic /Palatino-Italic /Palatino-Roman ] {ISOLatin1Encoding reEncode } forall
%%EndProlog
%%BeginSetup
%%EndSetup
newpath  gsave  .25 .25 scale  gsave  0 0 t black[  ] 0 sd 3 lw 1 1 1 c 2236 2948 0 0 bf black 1 1 1 c 2236 2948 0 0 bf black 1 1 1 c 1007 2418 1118 265 bf black 1007 2418 1118 265 bl 1 1 1 c 1118 265 m 1007 X s 1191 305 m -40 Y s 1220 285 m -20 Y s
 1249 285 m -20 Y s 1277 285 m -20 Y s 1306 285 m -20 Y s 1335 305 m -40 Y s 1363 285 m -20 Y s 1392 285 m -20 Y s 1421 285 m -20 Y s 1449 285 m -20 Y s 1478 305 m -40 Y s 1507 285 m -20 Y s 1535 285 m -20 Y s 1564 285 m -20 Y s 1593 285 m -20 Y s
 1621 305 m -40 Y s 1650 285 m -20 Y s 1679 285 m -20 Y s 1707 285 m -20 Y s 1736 285 m -20 Y s 1765 305 m -40 Y s 1793 285 m -20 Y s 1822 285 m -20 Y s 1851 285 m -20 Y s 1879 285 m -20 Y s 1908 305 m -40 Y s 1937 285 m -20 Y s 1965 285 m -20 Y s
 1994 285 m -20 Y s 2023 285 m -20 Y s 2051 305 m -40 Y s 1191 305 m -40 Y s 1163 285 m -20 Y s 1134 285 m -20 Y s 2051 305 m -40 Y s 2080 285 m -20 Y s 2109 285 m -20 Y s black 1 1 1 c
 gsave  2236 2948 0 0 C 1189.98 168.929 t 0 r /Helvetica findfont 73.2523 sf 0 0 m (3) show NC gr  black 1 1 1 c
 gsave  2236 2948 0 0 C 1151.11 168.929 t 0 r /Symbol findfont 73.2523 sf 0 0 m (-) show NC gr  black 1 1 1 c
 gsave  2236 2948 0 0 C 1333.49 168.929 t 0 r /Helvetica findfont 73.2523 sf 0 0 m (2) show NC gr  black 1 1 1 c
 gsave  2236 2948 0 0 C 1293.13 168.929 t 0 r /Symbol findfont 73.2523 sf 0 0 m (-) show NC gr  black 1 1 1 c
 gsave  2236 2948 0 0 C 1482.99 168.929 t 0 r /Helvetica findfont 73.2523 sf 0 0 m (1) show NC gr  black 1 1 1 c
 gsave  2236 2948 0 0 C 1442.62 168.929 t 0 r /Symbol findfont 73.2523 sf 0 0 m (-) show NC gr  black 1 1 1 c
 gsave  2236 2948 0 0 C 1601.09 168.929 t 0 r /Helvetica findfont 73.2523 sf 0 0 m (0) show NC gr  black 1 1 1 c
 gsave  2236 2948 0 0 C 1750.58 168.929 t 0 r /Helvetica findfont 73.2523 sf 0 0 m (1) show NC gr  black 1 1 1 c
 gsave  2236 2948 0 0 C 1888.12 168.929 t 0 r /Helvetica findfont 73.2523 sf 0 0 m (2) show NC gr  black 1 1 1 c
 gsave  2236 2948 0 0 C 2031.63 168.929 t 0 r /Helvetica findfont 73.2523 sf 0 0 m (3) show NC gr  black 1118 265 m 2418 Y s
 gsave  2236 2948 0 0 C 503.796 680.2 t 0 r /Helvetica findfont 55.313 sf 0 0 m (bbbb_CR12_E_ggf_Y16) show NC gr 
 gsave  2236 2948 0 0 C 488.847 756.442 t 0 r /Helvetica findfont 55.313 sf 0 0 m (JET_JER_EffectiveNP_6) show NC gr 
 gsave  2236 2948 0 0 C 497.817 834.179 t 0 r /Helvetica findfont 55.313 sf 0 0 m (JET_JER_EffectiveNP_1) show NC gr 
 gsave  2236 2948 0 0 C 729.533 911.916 t 0 r /Helvetica findfont 55.313 sf 0 0 m (ACC_ME_ttbar) show NC gr 
 gsave  2236 2948 0 0 C 659.271 992.643 t 0 r /Helvetica findfont 55.313 sf 0 0 m (nbkg_SM_2_bbyy) show NC gr 
 gsave  2236 2948 0 0 C 488.847 1068.89 t 0 r /Helvetica findfont 55.313 sf 0 0 m (JET_JER_EffectiveNP_5) show NC gr 
 gsave  2236 2948 0 0 C 677.21 1146.62 t 0 r /Helvetica findfont 55.313 sf 0 0 m (ACC_Zhf_CKKW) show NC gr 
 gsave  2236 2948 0 0 C 494.827 1224.36 t 0 r /Helvetica findfont 55.313 sf 0 0 m (ACC_Zhf_GENERATOR) show NC gr 
 gsave  2236 2948 0 0 C 503.796 1303.59 t 0 r /Helvetica findfont 55.313 sf 0 0 m (bbbb_CR12_E_ggf_Y18) show NC gr 
 gsave  2236 2948 0 0 C 503.796 1381.33 t 0 r /Helvetica findfont 55.313 sf 0 0 m (bbbb_CR12_S_ggf_Y18) show NC gr 
 gsave  2236 2948 0 0 C 494.827 1459.07 t 0 r /Helvetica findfont 55.313 sf 0 0 m (bbbb_NC_3b1f_ggf_Y17) show NC gr 
 gsave  2236 2948 0 0 C 500.807 1538.3 t 0 r /Helvetica findfont 55.313 sf 0 0 m (bbbb_CR12_N_ggf_Y17) show NC gr 
 gsave  2236 2948 0 0 C 432.039 1616.04 t 0 r /Helvetica findfont 55.313 sf 0 0 m (ACC_PS_ggFHH_bbtautau) show NC gr 
 gsave  2236 2948 0 0 C 562.099 1693.77 t 0 r /Helvetica findfont 55.313 sf 0 0 m (bbyy_Spurious_SM_2) show NC gr 
 gsave  2236 2948 0 0 C 174.909 1771.51 t 0 r /Helvetica findfont 55.313 sf 0 0 m (KLAMBDA_REWEIGHTING_HH_ggF) show NC gr 
 gsave  2236 2948 0 0 C 533.695 1849.25 t 0 r /Helvetica findfont 55.313 sf 0 0 m (BKG_p0_BSM_1_bbyy) show NC gr 
 gsave  2236 2948 0 0 C 774.382 1926.98 t 0 r /Helvetica findfont 55.313 sf 0 0 m (LHC_MHiggs) show NC gr 
 gsave  2236 2948 0 0 C 524.726 2006.22 t 0 r /Helvetica findfont 55.313 sf 0 0 m (bbyy_Spurious_BSM_2) show NC gr 
 gsave  2236 2948 0 0 C 352.807 2083.95 t 0 r /Helvetica findfont 55.313 sf 0 0 m (ACC_StopWt_TopInterference) show NC gr 
 gsave  2236 2948 0 0 C 309.454 2161.69 t 0 r /Helvetica findfont 55.313 sf 0 0 m (XS_fixmu_SCALEMTop_ggFHH) show NC gr 
 gsave  2236 2948 0 0 C 621.897 2239.43 t 0 r /Helvetica findfont 55.313 sf 0 0 m (nbkg_BSM_2_bbyy) show NC gr 
 gsave  2236 2948 0 0 C 533.695 2317.16 t 0 r /Helvetica findfont 55.313 sf 0 0 m (EG_SCALE_ALL_bbyy) show NC gr 
 gsave  2236 2948 0 0 C 621.897 2394.9 t 0 r /Helvetica findfont 55.313 sf 0 0 m (nbkg_BSM_1_bbyy) show NC gr 
 gsave  2236 2948 0 0 C 535.19 2474.13 t 0 r /Helvetica findfont 55.313 sf 0 0 m (bbyy_Spurious_BSM_1) show NC gr 
 gsave  2236 2948 0 0 C 521.736 2551.87 t 0 r /Helvetica findfont 55.313 sf 0 0 m (ACC_PS_ggFHH_bbbb) show NC gr  1118 265 m cl s 1118 343 m cl s 1118 421 m cl s 1118 499 m cl s 1118 577 m cl s 1118 655 m cl s 1118 733 m cl s 1118 811 m cl s 1118 889
 m cl s 1118 967 m cl s 1118 1045 m cl s 1118 1123 m cl s 1118 1201 m cl s 1118 1279 m cl s 1118 1357 m cl s 1118 1435 m cl s 1118 1513 m cl s 1118 1591 m cl s 1118 1669 m cl s 1118 1747 m cl s 1118 1825 m cl s 1118 1903 m cl s 1118 1981 m cl s 1118
 2059 m cl s 1118 2137 m cl s 1118 2215 m cl s 1118 2293 m cl s 1118 2371 m cl s 1118 2449 m cl s 1118 2527 m cl s 1118 2605 m cl s 1118 2683 m cl s 0.9 0.9 0.9 c 1 lw << /PatternType 1 /PaintType 2 /TilingType 1 /BBox [ 0 0 98 4 ] /XStep 98 /YStep 4
 /PaintProc { begin gsave [1] 0 sd 2 4 m 99 4 l s 1 3 m 98 3 l s 2 2 m 99 2 l s 1 1 m 98 1 l s gr end } >> [ 4.0 0 0 4.0 0 0 ] makepattern /P01 exch def /cs {[/Pattern /DeviceRGB] setcolorspace} def /FA {f [/DeviceRGB] setcolorspace} def cs 0.9 0.9
 0.9 P01 setcolor 1118 655 m 1007 X 78 Y -1007 X FA 3 lw 0.9 0.9 0.9 c cs 0.9 0.9 0.9 P01 setcolor 1118 811 m 1007 X 78 Y -1007 X FA 0.9 0.9 0.9 c cs 0.9 0.9 0.9 P01 setcolor 1118 967 m 1007 X 78 Y -1007 X FA 0.9 0.9 0.9 c cs 0.9 0.9 0.9 P01 setcolor
 1118 1123 m 1007 X 78 Y -1007 X FA 0.9 0.9 0.9 c cs 0.9 0.9 0.9 P01 setcolor 1118 1279 m 1007 X 78 Y -1007 X FA 0.9 0.9 0.9 c cs 0.9 0.9 0.9 P01 setcolor 1118 1435 m 1007 X 78 Y -1007 X FA 0.9 0.9 0.9 c cs 0.9 0.9 0.9 P01 setcolor 1118 1591 m 1007 X
 78 Y -1007 X FA 0.9 0.9 0.9 c cs 0.9 0.9 0.9 P01 setcolor 1118 1747 m 1007 X 78 Y -1007 X FA 0.9 0.9 0.9 c cs 0.9 0.9 0.9 P01 setcolor 1118 1903 m 1007 X 78 Y -1007 X FA 0.9 0.9 0.9 c cs 0.9 0.9 0.9 P01 setcolor 1118 2059 m 1007 X 78 Y -1007 X FA
 0.9 0.9 0.9 c cs 0.9 0.9 0.9 P01 setcolor 1118 2215 m 1007 X 78 Y -1007 X FA 0.9 0.9 0.9 c cs 0.9 0.9 0.9 P01 setcolor 1118 2371 m 1007 X 78 Y -1007 X FA 0.9 0.9 0.9 c cs 0.9 0.9 0.9 P01 setcolor 1118 2527 m 1007 X 78 Y -1007 X FA 0.9 0.9 0.9 c
 black 0 0.6 1 c 0 39 1621 655 bf 0 39 1621 694 bf 0 39 1621 733 bf 0 39 1621 772 bf 47 39 1616 811 bf 47 39 1616 850 bf 48 39 1597 889 bf 48 39 1597 928 bf 0 39 1621 967 bf 0 39 1621 1006 bf 0 39 1621 1045 bf 0 39 1621 1084 bf 53 39 1595 1123 bf 53
 39 1595 1162 bf 53 39 1596 1201 bf 53 39 1596 1240 bf 0 39 1621 1279 bf 0 39 1621 1318 bf 0 39 1621 1357 bf 0 39 1621 1396 bf 58 39 1590 1435 bf 58 39 1590 1474 bf 61 39 1592 1513 bf 61 39 1592 1552 bf 0 39 1621 1591 bf 0 39 1621 1630 bf 0 39 1621
 1669 bf 0 39 1621 1708 bf 0 39 1621 1747 bf 0 39 1621 1786 bf 0 39 1621 1825 bf 0 39 1621 1864 bf 140 39 1546 1903 bf 140 39 1546 1942 bf 0 39 1621 1981 bf 0 39 1621 2020 bf 0 39 1621 2059 bf 0 39 1621 2098 bf 221 39 1400 2137 bf 19 39 1602 2176 bf
 0 39 1621 2215 bf 0 39 1621 2254 bf 354 39 1394 2293 bf 354 39 1394 2332 bf 0 39 1621 2371 bf 0 39 1621 2410 bf 0 39 1621 2449 bf 0 39 1621 2488 bf 0 39 1621 2527 bf 0 39 1621 2566 bf black 0.266667 1 0.580392 c 46 39 1598 655 bf 46 39 1598 694 bf
 47 39 1614 733 bf 47 39 1614 772 bf 0 39 1621 811 bf 0 39 1621 850 bf 0 39 1621 889 bf 0 39 1621 928 bf 48 39 1600 967 bf 48 39 1600 1006 bf 50 39 1603 1045 bf 50 39 1603 1084 bf 0 39 1621 1123 bf 0 39 1621 1162 bf 0 39 1621 1201 bf 0 39 1621 1240
 bf 56 39 1592 1279 bf 56 39 1592 1318 bf 57 39 1593 1357 bf 57 39 1593 1396 bf 0 39 1621 1435 bf 0 39 1621 1474 bf 0 39 1621 1513 bf 0 39 1621 1552 bf 89 39 1576 1591 bf 89 39 1576 1630 bf 105 39 1576 1669 bf 105 39 1576 1708 bf 109 39 1560 1747 bf
 109 39 1560 1786 bf 126 39 1590 1825 bf 126 39 1590 1864 bf 0 39 1621 1903 bf 0 39 1621 1942 bf 148 39 1555 1981 bf 148 39 1555 2020 bf 178 39 1517 2059 bf 178 39 1517 2098 bf 0 39 1621 2137 bf 0 39 1621 2176 bf 242 39 1512 2215 bf 242 39 1512 2254
 bf 0 39 1621 2293 bf 0 39 1621 2332 bf 450 39 1432 2371 bf 450 39 1432 2410 bf 557 39 1424 2449 bf 557 39 1424 2488 bf 642 39 1250 2527 bf 642 39 1250 2566 bf black 0 0.00392157 0.333333 c 3 lw 0 39 1621 655 bl 0 39 1621 694 bl 0 39 1621 733 bl 0 39
 1621 772 bl 50 39 1615 811 bl 50 39 1615 850 bl 63 39 1589 889 bl 63 39 1589 928 bl 0 39 1621 967 bl 0 39 1621 1006 bl 0 39 1621 1045 bl 0 39 1621 1084 bl 59 39 1592 1123 bl 59 39 1592 1162 bl 84 39 1581 1201 bl 84 39 1581 1240 bl 0 39 1621 1279 bl
 0 39 1621 1318 bl 0 39 1621 1357 bl 0 39 1621 1396 bl 76 39 1580 1435 bl 76 39 1580 1474 bl 86 39 1581 1513 bl 86 39 1581 1552 bl 0 39 1621 1591 bl 0 39 1621 1630 bl 0 39 1621 1669 bl 0 39 1621 1708 bl 0 39 1621 1747 bl 0 39 1621 1786 bl 0 39 1621
 1825 bl 0 39 1621 1864 bl 140 39 1546 1903 bl 140 39 1546 1942 bl 0 39 1621 1981 bl 0 39 1621 2020 bl 0 39 1621 2059 bl 0 39 1621 2098 bl 218 39 1403 2137 bl 18 39 1603 2176 bl 0 39 1621 2215 bl 0 39 1621 2254 bl 350 39 1396 2293 bl 350 39 1396 2332
 bl 0 39 1621 2371 bl 0 39 1621 2410 bl 0 39 1621 2449 bl 0 39 1621 2488 bl 0 39 1621 2527 bl 0 39 1621 2566 bl black 0.00784314 0.466667 0.203922 c 57 39 1592 655 bl 57 39 1592 694 bl 48 39 1614 733 bl 48 39 1614 772 bl 0 39 1621 811 bl 0 39 1621
 850 bl 0 39 1621 889 bl 0 39 1621 928 bl 48 39 1600 967 bl 48 39 1600 1006 bl 52 39 1602 1045 bl 52 39 1602 1084 bl 0 39 1621 1123 bl 0 39 1621 1162 bl 0 39 1621 1201 bl 0 39 1621 1240 bl 67 39 1586 1279 bl 67 39 1586 1318 bl 62 39 1590 1357 bl 62
 39 1590 1396 bl 0 39 1621 1435 bl 0 39 1621 1474 bl 0 39 1621 1513 bl 0 39 1621 1552 bl 89 39 1576 1591 bl 89 39 1576 1630 bl 111 39 1574 1669 bl 111 39 1574 1708 bl 110 39 1559 1747 bl 110 39 1559 1786 bl 126 39 1590 1825 bl 126 39 1590 1864 bl 0
 39 1621 1903 bl 0 39 1621 1942 bl 151 39 1554 1981 bl 151 39 1554 2020 bl 213 39 1499 2059 bl 213 39 1499 2098 bl 0 39 1621 2137 bl 0 39 1621 2176 bl 242 39 1512 2215 bl 242 39 1512 2254 bl 0 39 1621 2293 bl 0 39 1621 2332 bl 450 39 1432 2371 bl 450
 39 1432 2410 bl 604 39 1415 2449 bl 604 39 1415 2488 bl 644 39 1250 2527 bl 644 39 1250 2566 bl black 1118 2683 m 1007 X s 1219 2643 m 40 Y s 1259 2663 m 20 Y s 1299 2663 m 20 Y s 1340 2663 m 20 Y s 1380 2663 m 20 Y s 1420 2643 m 40 Y s 1460 2663 m
 20 Y s 1501 2663 m 20 Y s 1541 2663 m 20 Y s 1581 2663 m 20 Y s 1621 2643 m 40 Y s 1662 2663 m 20 Y s 1702 2663 m 20 Y s 1742 2663 m 20 Y s 1782 2663 m 20 Y s 1823 2643 m 40 Y s 1863 2663 m 20 Y s 1903 2663 m 20 Y s 1943 2663 m 20 Y s 1984 2663 m 20
 Y s 2024 2643 m 40 Y s 1219 2643 m 40 Y s 1179 2663 m 20 Y s 1138 2663 m 20 Y s 2024 2643 m 40 Y s 2064 2663 m 20 Y s 2104 2663 m 20 Y s
 gsave  2236 2948 0 0 C 1194.46 2707.35 t 0 r /Helvetica findfont 70.2624 sf 0 0 m (0.1) show NC gr 
 gsave  2236 2948 0 0 C 1157.09 2707.35 t 0 r /Symbol findfont 70.2624 sf 0 0 m (-) show NC gr 
 gsave  2236 2948 0 0 C 1369.37 2707.35 t 0 r /Helvetica findfont 70.2624 sf 0 0 m (0.05) show NC gr 
 gsave  2236 2948 0 0 C 1332 2707.35 t 0 r /Symbol findfont 70.2624 sf 0 0 m (-) show NC gr 
 gsave  2236 2948 0 0 C 1602.58 2707.35 t 0 r /Helvetica findfont 70.2624 sf 0 0 m (0) show NC gr 
 gsave  2236 2948 0 0 C 1755.07 2707.35 t 0 r /Helvetica findfont 70.2624 sf 0 0 m (0.05) show NC gr 
 gsave  2236 2948 0 0 C 1980.8 2707.35 t 0 r /Helvetica findfont 70.2624 sf 0 0 m (0.1) show NC gr 
 gsave  2236 2948 0 0 C 2097.41 2817.97 t 0 r /Symbol findfont 47.8382 sf 0 0 m (l) show NC gr 
 gsave  2236 2948 0 0 C 2057.04 2838.9 t 0 r /Symbol findfont 70.2624 sf 0 0 m (k) show NC gr  6 lw 2068 2888 m 22 11 d s 2090 2899 m 22 -11 d s
 gsave  2236 2948 0 0 C 2012.2 2838.9 t 0 r /Helvetica findfont 70.2624 sf 0 0 m (\)/) show NC gr 
 gsave  2236 2948 0 0 C 1985.29 2817.97 t 0 r /Symbol findfont 47.8382 sf 0 0 m (l) show NC gr 
 gsave  2236 2948 0 0 C 1944.92 2838.9 t 0 r /Symbol findfont 70.2624 sf 0 0 m (k) show NC gr  1955 2888 m 23 11 d s 1978 2899 m 22 -11 d s
 gsave  2236 2948 0 0 C 1901.57 2838.9 t 0 r /Symbol findfont 70.2624 sf 0 0 m (D) show NC gr 
 gsave  2236 2948 0 0 C 1880.64 2838.9 t 0 r /Helvetica findfont 70.2624 sf 0 0 m (\() show NC gr  3 lw 1118 265 m 1007 X s 1191 305 m -40 Y s 1220 285 m -20 Y s 1249 285 m -20 Y s 1277 285 m -20 Y s 1306 285 m -20 Y s 1335 305 m -40 Y s 1363 285 m
 -20 Y s 1392 285 m -20 Y s 1421 285 m -20 Y s 1449 285 m -20 Y s 1478 305 m -40 Y s 1507 285 m -20 Y s 1535 285 m -20 Y s 1564 285 m -20 Y s 1593 285 m -20 Y s 1621 305 m -40 Y s 1650 285 m -20 Y s 1679 285 m -20 Y s 1707 285 m -20 Y s 1736 285 m
 -20 Y s 1765 305 m -40 Y s 1793 285 m -20 Y s 1822 285 m -20 Y s 1851 285 m -20 Y s 1879 285 m -20 Y s 1908 305 m -40 Y s 1937 285 m -20 Y s 1965 285 m -20 Y s 1994 285 m -20 Y s 2023 285 m -20 Y s 2051 305 m -40 Y s 1191 305 m -40 Y s 1163 285 m
 -20 Y s 1134 285 m -20 Y s 2051 305 m -40 Y s 2080 285 m -20 Y s 2109 285 m -20 Y s
 gsave  2236 2948 0 0 C 1160.08 170.424 t 0 r /Helvetica findfont 70.2624 sf 0 0 m (1.5) show NC gr 
 gsave  2236 2948 0 0 C 1122.7 170.424 t 0 r /Symbol findfont 70.2624 sf 0 0 m (-) show NC gr 
 gsave  2236 2948 0 0 C 1339.47 170.424 t 0 r /Helvetica findfont 70.2624 sf 0 0 m (1) show NC gr 
 gsave  2236 2948 0 0 C 1300.6 170.424 t 0 r /Symbol findfont 70.2624 sf 0 0 m (-) show NC gr 
 gsave  2236 2948 0 0 C 1447.11 170.424 t 0 r /Helvetica findfont 70.2624 sf 0 0 m (0.5) show NC gr 
 gsave  2236 2948 0 0 C 1409.73 170.424 t 0 r /Symbol findfont 70.2624 sf 0 0 m (-) show NC gr 
 gsave  2236 2948 0 0 C 1602.58 170.424 t 0 r /Helvetica findfont 70.2624 sf 0 0 m (0) show NC gr 
 gsave  2236 2948 0 0 C 1716.2 170.424 t 0 r /Helvetica findfont 70.2624 sf 0 0 m (0.5) show NC gr 
 gsave  2236 2948 0 0 C 1894.1 170.424 t 0 r /Helvetica findfont 70.2624 sf 0 0 m (1) show NC gr 
 gsave  2236 2948 0 0 C 2003.23 170.424 t 0 r /Helvetica findfont 70.2624 sf 0 0 m (1.5) show NC gr 
 gsave  2236 2948 0 0 C 2089.93 62.7877 t 0 r /Symbol findfont 70.2624 sf 0 0 m (q) show NC gr 
 gsave  2236 2948 0 0 C 2046.58 62.7877 t 0 r /Symbol findfont 70.2624 sf 0 0 m (D) show NC gr 
 gsave  2236 2948 0 0 C 2001.73 62.7877 t 0 r /Helvetica findfont 70.2624 sf 0 0 m (\)/) show NC gr 
 gsave  2236 2948 0 0 C 1976.32 41.8585 t 0 r /Helvetica findfont 47.8382 sf 0 0 m (0) show NC gr 
 gsave  2236 2948 0 0 C 1941.93 62.7877 t 0 r /Symbol findfont 70.2624 sf 0 0 m (q) show NC gr 
 gsave  2236 2948 0 0 C 1877.65 62.7877 t 0 r /Helvetica findfont 70.2624 sf 0 0 m ( \255 ) show NC gr 
 gsave  2236 2948 0 0 C 1843.27 62.7877 t 0 r /Symbol findfont 70.2624 sf 0 0 m (q) show NC gr  6 lw 1848 112 m 12 11 d s 1860 123 m 12 -11 d s
 gsave  2236 2948 0 0 C 1822.34 62.7877 t 0 r /Helvetica findfont 70.2624 sf 0 0 m (\() show NC gr  3 lw 1118 655 m 2028 Y s 0.6 0.6 0.6 c[ 12 12] 0 sd 6 lw 1621 655 m 1950 Y s 1908 655 m 1950 Y s 1335 655 m 1950 Y s 1 0 0 c[  ] 0 sd 3 lw 1589 772 m
 -287 X s 1302 765 m 15 Y s 1589 772 m 286 X s 1875 765 m 15 Y s 1589 850 m -287 X s 1302 843 m 15 Y s 1589 850 m 286 X s 1875 843 m 15 Y s 1869 928 m -287 X s 1582 921 m 15 Y s 1869 928 m 256 X s 1627 1084 m -287 X s 1340 1077 m 15 Y s 1627 1084 m
 286 X s 1913 1077 m 15 Y s 1559 1162 m -287 X s 1272 1155 m 15 Y s 1559 1162 m 286 X s 1845 1155 m 15 Y s 1692 1240 m -286 X s 1406 1233 m 15 Y s 1692 1240 m 287 X s 1979 1233 m 15 Y s 1679 1318 m -286 X s 1393 1311 m 15 Y s 1679 1318 m 287 X s 1966
 1311 m 15 Y s 1765 1396 m -286 X s 1479 1389 m 15 Y s 1765 1396 m 287 X s 2052 1389 m 15 Y s 1440 1474 m -287 X s 1153 1467 m 14 Y s 1440 1474 m 287 X s 1727 1467 m 14 Y s 1264 1552 m -146 X s 1264 1552 m 287 X s 1551 1545 m 14 Y s 1620 1630 m -287
 X s 1333 1623 m 14 Y s 1620 1630 m 286 X s 1906 1623 m 14 Y s 1751 1708 m -286 X s 1465 1700 m 15 Y s 1751 1708 m 287 X s 2038 1700 m 15 Y s 1617 1786 m -287 X s 1330 1778 m 15 Y s 1617 1786 m 287 X s 1904 1778 m 15 Y s 1608 1864 m -287 X s 1321
 1856 m 15 Y s 1608 1864 m 287 X s 1895 1856 m 15 Y s 1598 1942 m -287 X s 1311 1934 m 15 Y s 1598 1942 m 286 X s 1884 1934 m 15 Y s 1500 2020 m -287 X s 1213 2012 m 15 Y s 1500 2020 m 286 X s 1786 2012 m 15 Y s 1521 2098 m -287 X s 1234 2090 m 15 Y
 s 1521 2098 m 287 X s 1808 2090 m 15 Y s 1618 2176 m -287 X s 1331 2168 m 15 Y s 1618 2176 m 287 X s 1905 2168 m 15 Y s 1553 2332 m -287 X s 1266 2324 m 15 Y s 1553 2332 m 287 X s 1840 2324 m 15 Y s 1664 2488 m -286 X s 1378 2480 m 15 Y s 1664 2488
 m 287 X s 1951 2480 m 15 Y s 1592 2566 m -287 X s 1305 2558 m 15 Y s 1592 2566 m 287 X s 1879 2558 m 15 Y s 1 1 1 c 1 0 0 c /w 2 def /w2 {w 2 div} def /w3 {w 3 div} def 1589 772 1589 850 1869 928 3 { m20} R 1627 1084 1559 1162 1692 1240 1679 1318
 1765 1396 1440 1474 1264 1552 1620 1630 1751 1708 1617 1786 1608 1864 1598 1942 1500 2020 1521 2098 1618 2176 15 { m20} R 1553 2332 m20 1664 2488 1592 2566 2 { m20} R black 1583 772 m -270 X s 1313 765 m 15 Y s 1595 772 m 270 X s 1865 765 m 15 Y s
 1583 850 m -269 X s 1314 843 m 15 Y s 1595 850 m 268 X s 1863 843 m 15 Y s 1863 928 m -210 X s 1653 921 m 15 Y s 1875 928 m 210 X s 2085 921 m 15 Y s 1621 1084 m -271 X s 1350 1077 m 15 Y s 1633 1084 m 270 X s 1903 1077 m 15 Y s 1553 1162 m -252 X s
 1301 1155 m 15 Y s 1565 1162 m 250 X s 1815 1155 m 15 Y s 1686 1240 m -168 X s 1518 1233 m 15 Y s 1698 1240 m 178 X s 1876 1233 m 15 Y s 1673 1318 m -235 X s 1438 1311 m 15 Y s 1685 1318 m 235 X s 1920 1311 m 15 Y s 1759 1396 m -256 X s 1503 1389 m
 15 Y s 1771 1396 m 256 X s 2027 1389 m 15 Y s 1434 1474 m -213 X s 1221 1467 m 14 Y s 1446 1474 m 214 X s 1660 1467 m 14 Y s 1258 1552 m -140 X s 1270 1552 m 196 X s 1466 1545 m 14 Y s 1614 1630 m -281 X s 1333 1623 m 14 Y s 1626 1630 m 280 X s 1906
 1623 m 14 Y s 1745 1708 m -265 X s 1480 1700 m 15 Y s 1757 1708 m 266 X s 2023 1700 m 15 Y s 1611 1786 m -280 X s 1331 1778 m 15 Y s 1623 1786 m 280 X s 1903 1778 m 15 Y s 1592 1942 m -281 X s 1311 1934 m 15 Y s 1604 1942 m 281 X s 1885 1934 m 15 Y
 s 1494 2020 m -276 X s 1218 2012 m 15 Y s 1506 2020 m 276 X s 1782 2012 m 15 Y s 1515 2098 m -223 X s 1292 2090 m 15 Y s 1527 2098 m 242 X s 1769 2090 m 15 Y s 1612 2176 m -283 X s 1329 2168 m 15 Y s 1624 2176 m 286 X s 1910 2168 m 15 Y s 1547 2332
 m -282 X s 1265 2324 m 15 Y s 1559 2332 m 287 X s 1846 2324 m 15 Y s 1658 2488 m -260 X s 1398 2480 m 15 Y s 1670 2488 m 264 X s 1934 2480 m 15 Y s 1586 2566 m -279 X s 1307 2558 m 15 Y s 1598 2566 m 281 X s 1879 2558 m 15 Y s 1 1 1 c black /w 12
 def /w2 {w 2 div} def /w3 {w 3 div} def 1589 772 1589 850 1869 928 3 { m20} R 1627 1084 1559 1162 1692 1240 1679 1318 1765 1396 1440 1474 1264 1552 1620 1630 1751 1708 1617 1786 1608 1864 1598 1942 1500 2020 1521 2098 1618 2176 15 { m20} R 1553 2332
 m20 1664 2488 1592 2566 2 { m20} R
 gsave  2236 2948 0 0 C 1654.9 568.079 t 0 r /Helvetica findfont 46.3433 sf 0 0 m (Pull) show NC gr  1465 583 m 156 X s 1543 583 m20
 gsave  2236 2948 0 0 C 1654.9 496.322 t 0 r /Helvetica findfont 46.3433 sf 0 0 m (1 standard deviation) show NC gr  1 0 0 c 1465 511 m 156 X s black
 gsave  2236 2948 0 0 C 2019.67 411.11 t 0 r /Symbol findfont 31.3938 sf 0 0 m (l) show NC gr 
 gsave  2236 2948 0 0 C 1992.76 424.564 t 0 r /Symbol findfont 46.3433 sf 0 0 m (k) show NC gr  6 lw 2000 457 m 15 8 d s 2015 465 m 15 -8 d s
 gsave  2236 2948 0 0 C 1654.9 424.564 t 0 r /Helvetica findfont 46.3433 sf 0 0 m (Prefit Impact on ) show NC gr  0 0.00392157 0.333333 c 3 lw 1465 414 m 156 X 51 Y -156 X cl s 6 lw 3 lw 1465 465 m 156 X s 1465 414 m 156 X s 1621 414 m 51 Y s 1465
 414 m 51 Y s black
 gsave  2236 2948 0 0 C 2040.6 339.353 t 0 r /Symbol findfont 31.3938 sf 0 0 m (l) show NC gr 
 gsave  2236 2948 0 0 C 2013.69 352.807 t 0 r /Symbol findfont 46.3433 sf 0 0 m (k) show NC gr  6 lw 2021 386 m 15 7 d s 2036 393 m 15 -7 d s
 gsave  2236 2948 0 0 C 1654.9 352.807 t 0 r /Helvetica findfont 46.3433 sf 0 0 m (Postfit Impact on ) show NC gr  0 0.6 1 c 3 lw 1465 342 m 156 X 51 Y -156 X f 6 lw black
 gsave  2236 2948 0 0 C 110.626 545.655 t 0 r /Helvetica-BoldOblique findfont 73.2523 sf 0 0 m (ATLAS) show NC gr 
 gsave  2236 2948 0 0 C 385.696 545.655 t 0 r /Helvetica findfont 73.2523 sf 0 0 m (Internal) show NC gr 
 gsave  2236 2948 0 0 C 705.614 497.817 t 0 r /Helvetica findfont 49.3332 sf 0 0 m (\2551) show NC gr 
 gsave  2236 2948 0 0 C 183.878 464.928 t 0 r /Helvetica findfont 73.2523 sf 0 0 m (=13 TeV, 139 fb) show NC gr 
 gsave  2236 2948 0 0 C 149.495 464.928 t 0 r /Helvetica findfont 73.2523 sf 0 0 m (s) show NC gr  6 lw 126 505 m 7 -43 d s 3 lw 133 462 m 8 64 d s 141 526 m 43 X s
 gsave  2236 2948 0 0 C 110.626 384.201 t 0 r /Helvetica findfont 73.2523 sf 0 0 m (HH) show NC gr 
 gsave  2236 2948 0 0 C 110.626 303.474 t 0 r /Helvetica findfont 73.2523 sf 0 0 m (Observed) show NC gr 
 gr  gr showpage
end
%%EOF
