np,center,left,right,correlation
ATLAS_JER_EffectiveNP_12restTerm_Rel21,-0.723319,0.821568,0.821568,1
ATLAS_JER_DataVSMC_Rel21_H,-0.301242,0.722555,0.722555,0.139726
ATLAS_JER_EffectiveNP_2_Rel21_H,-0.271647,0.414087,0.414087,-0.121277
ATLAS_JER_EffectiveNP_11_Rel21_H,-0.00374865,0.771487,0.771487,0.105803
BkgTheory_shape_z_mur_muf_envelope_hh_boost_2_1J_Htautau_H,-0.516087,0.901383,0.901383,0.0883782
ATLAS_JER_EffectiveNP_5_Rel21_H,0.850244,0.59893,0.59893,0.0861703
ATLAS_MET_SoftTrk_Scale_Rel21_H,-0.00606644,0.607904,0.607904,-0.0804004
ATLAS_JER_EffectiveNP_1_Rel21_H,0.639257,0.403898,0.403898,-0.0788124
BkgTheory_shape_z_mur_muf_envelope_hh_boost_1_2J_Htautau_H,-0.187598,0.842398,0.842398,0.0761393
gamma_stat_chan_hh__cat_boost_0_1J__sr_bin_16_Htautau_channel_HComb,0.950802,0.0338468,0.0338468,-0.0616447
BkgTheory_top_fsr_Htautau_H,0.320052,0.315421,0.315421,0.0602596
BkgTheory_shape_z_mur_muf_envelope_hh_boost_1_1J_Htautau_H,-0.147117,0.567904,0.567904,-0.0586196
unconstr_norm_hh_vbf_1_Ztt_Htautau_H,1.05222,0.122937,0.122937,-0.058326
gamma_stat_chan_hh__cat_boost_0_1J__sr_bin_17_Htautau_channel_HComb,0.957662,0.0468848,0.0468848,-0.0578444
ATLAS_JES_PU_OffsetNPV_Rel21_H,-0.208199,0.731339,0.731339,-0.0562239
ATLAS_JER_EffectiveNP_10_Rel21_H,0.373754,0.876736,0.876736,0.0561491
unconstr_norm_hh_vh_1_Ztt_Htautau_H,1.07615,0.115792,0.115792,0.0558392
BkgTheory_ttbar_shower_ggf2j_HWW_H,0.760324,0.91866,0.91866,0.0498871
BkgTheory_shape_z_mur_muf_envelope_ll_boost_1_2J_Htautau_H,-0.163362,0.952184,0.952184,0.0497955
ATLAS_JES_PU_PtTerm_Rel21_H,0.786866,0.763423,0.763423,-0.0485754
BkgTheory_vgamma_norm_ggf2j_HWW_H,-0.0834806,0.748986,0.748986,0.0475055
ATLAS_JES_EtaIntercalibration_Modelling_Rel21_H,-0.625147,0.555461,0.555461,0.0471444
unconstr_norm_Zjets_MJJ_GT700_PTH_0_200_VBF_HWW_channel_HComb,0.779384,0.218548,0.218548,0.047048
ATLAS_JER_EffectiveNP_7_Rel21_H,-0.178029,0.909795,0.909795,0.0448922
gamma_stat_chan_hh__cat_boost_0_1J__sr_bin_13_Htautau_channel_HComb,0.990655,0.0148371,0.0148371,0.0440989
unconstr_norm_lh_vbf_Top_Htautau_H,0.99776,0.215996,0.215996,0.0432619
gamma_stat_chan_ll__cat_boost_1_ge2J__sr_bin_4_Htautau_channel_HComb,0.979499,0.0369541,0.0369541,0.0401405
BkgTheory_z_mur_muf_envelope_lh_boost_0_2J_Htautau_H,-0.680311,0.812312,0.812312,-0.0393812
unconstr_norm_ll_vh_Top_Htautau_H,1.05259,0.178747,0.178747,0.0391898
gamma_stat_GGF2J_SR_Mll1_PTH_0_200_bin_1_HWW_channel_HComb,1.00763,0.0383501,0.0383501,0.0385321
unconstr_norm_lh_boost_Top_Htautau_H,1.00763,0.208291,0.208291,0.0384244
ATLAS_JES_EffectiveNP_Modelling3_H,0.327003,0.913923,0.913923,-0.0365977
unconstr_norm_Zjets_MJJ_350_700_PTH_0_200_VBF_HWW_channel_HComb,0.90145,0.245338,0.245338,0.0362953
BkgTheory_shape_z_mur_muf_envelope_lh_boost_2_1J_Htautau_H,-0.00475685,0.922852,0.922852,-0.0359869
BkgTheory_shape_z_mur_muf_envelope_lh_boost_1_1J_Htautau_H,-0.0680908,0.612824,0.612824,-0.0356551
unconstr_norm_ll_boost_Top_Htautau_H,1.04948,0.183216,0.183216,0.03548
gamma_stat_chan_hh__cat_boost_0_1J__sr_bin_20_Htautau_channel_HComb,0.992843,0.0613227,0.0613227,0.0351348
gamma_stat_chan_lh__cat_boost_0_ge2J__sr_bin_15_Htautau_channel_HComb,0.977376,0.0294348,0.0294348,-0.0349184
gamma_stat_GGF2J_SR_Mll1_PTH_0_200_bin_3_HWW_channel_HComb,1.00348,0.0276558,0.0276558,0.0348224
BkgTheory_shape_z_mur_muf_envelope_lh_boost_1_2J_Htautau_H,0.0377785,0.921905,0.921905,-0.0347467
unconstr_norm_lh_boost_0_ge2J_Ztt_Htautau_H,1.02385,0.0677961,0.0677961,0.0337136
gamma_stat_chan_hh__cat_boost_0_1J__sr_bin_15_Htautau_channel_HComb,1.00978,0.0185403,0.0185403,-0.0326891
BkgTheory_z_pdf_hh_vh_1_Htautau_H,-0.0210334,0.962494,0.962494,0.0324386
unconstr_norm_ll_vbf_0_Ztt_Htautau_H,0.949763,0.0774732,0.0774732,0.0318179
BkgTheory_vgamma_norm_ggf0j_HWW_H,0.921092,0.259805,0.259805,-0.0316953
ATLAS_JES_PU_OffsetMu_Rel21_H,-0.227888,0.556254,0.556254,-0.0306007
ATLAS_TAUS_TRUEHADTAU_SME_TES_PHYSICSLIST_Rel21_H,0.298979,0.765503,0.765503,0.0305635
BkgTheory_z_qsf_Htautau_H,-0.289273,0.827688,0.827688,0.0305032
BkgTheory_ACC_Zhf_CKKW_HH,-0.160881,0.889576,0.889576,-0.0301728
gamma_stat_chan_hh__cat_vh_1__cr_ztt_bin_0_Htautau_channel_HComb,1.00036,0.0176246,0.0176246,-0.0301013
BkgTheory_ttbar_fsr_vbf_HWW_H,-0.086856,0.898448,0.898448,0.0299746
gamma_stat_chan_hh__cat_boost_0_1J__sr_bin_14_Htautau_channel_HComb,1.01038,0.0184438,0.0184438,0.029496
ATLAS_JES_EffectiveNP_Modelling4_H,-0.00223896,0.960952,0.960952,0.0293533
BkgTheory_ww_CSSKIN_vbf_HWW_H,-0.252201,0.940082,0.940082,0.0292907
unconstr_norm_lh_vh_Top_Htautau_H,1.07246,0.176396,0.176396,0.0288406
BkgTheory_shape_mur_muf_envelope_hh_boost_0_1J_Htautau_H,-0.142729,0.95288,0.95288,-0.028469
BkgTheory_ttbar_shower_vbf_HWW_H,0.194233,0.924918,0.924918,-0.0278167
unconstr_norm_top_1jet_PTH_GT200_GGF01J_HWW_channel_HComb,0.92761,0.22731,0.22731,-0.0275596
gamma_stat_chan_hh__cat_boost_0_1J__sr_bin_19_Htautau_channel_HComb,1.03079,0.0620991,0.0620991,0.0273158
BkgTheory_wt_interference_ggf2j_HWW_H,-0.201443,0.906543,0.906543,0.0268667
gamma_stat_GGF2J_SR_Mll1_PTH_GT200_bin_4_HWW_channel_HComb,1.00777,0.0649219,0.0649219,0.0266621
unconstr_norm_WW_0jet_GGF01J_HWW_channel_HComb,1.00855,0.0639785,0.0639785,0.0265586
BkgTheory_ACC_Zhf_GENERATOR_HH,0.292587,0.631398,0.631398,0.0262844
ATLAS_FT_EFF_Eigen_B_0_PFlowDL1rWP85Tight_H,-0.011509,0.793164,0.793164,-0.0261687
ATLAS_JES_PU_Rho_top_Rel21_H,0.0169636,0.938006,0.938006,0.0260074
unconstr_norm_top_MJJ_GT700_PTH_0_200_VBF_HWW_channel_HComb,0.938534,0.316228,0.316228,0.0259756
BkgTheory_ACC_PS_ttbar_SLT_HH,-0.0449069,0.337932,0.337932,-0.0257642
gamma_stat_VBF_SR_MJJ_350_700_PTH_0_200_bin_1_HWW_channel_HComb,0.857241,0.107002,0.107002,-0.0255861
gamma_stat_chan_ll__cat_vbf_0__sr_bin_7_Htautau_channel_HComb,1.05368,0.0892295,0.0892295,-0.0255762
unconstr_norm_ll_boost_0_1J_Ztt_Htautau_H,1.03829,0.130968,0.130968,0.02543
unconstr_norm_lh_boost_0_1J_Ztt_Htautau_H,1.03135,0.128709,0.128709,0.0252489
gamma_stat_chan_ll__cat_boost_0_1J__sr_bin_11_Htautau_channel_HComb,1.09399,0.114171,0.114171,0.0251547
ATLAS_TAUS_TRUEHADTAU_SME_TES_INSITUEXP_Rel21_H,0.347337,0.807946,0.807946,0.0249087
gamma_stat_chan_hh__cat_boost_0_1J__sr_bin_10_Htautau_channel_HComb,0.992795,0.0153206,0.0153206,-0.0247968
BkgTheory_ttbar_shower_ggf1j_HWW_H,-0.713434,0.828225,0.828225,-0.0243491
unconstr_norm_lh_vbf_0_Ztt_Htautau_H,0.95329,0.0733072,0.0733072,0.0243386
unconstr_norm_ll_boost_1_1J_Ztt_Htautau_H,0.942109,0.151278,0.151278,0.0242293
unconstr_norm_WW_PTH_0_200_GGF2J_HWW_channel_HComb,0.80283,0.412441,0.412441,-0.0238682
gamma_stat_Region_BMin0_incJet1_distNN_J2_DSM_T2_SpcTauLH_Y2015_LTT0_L1_bin_5_bbtautau_channel_HHComb,1.00244,0.00510463,0.00510463,0.0232722
ATLAS_MUON_SAGITTA_RESBIAS_Rel21_H,0.295591,0.823305,0.823305,0.0230454
gamma_stat_chan_ll__cat_boost_1_ge2J__sr_bin_9_Htautau_channel_HComb,1.00498,0.0254631,0.0254631,-0.0230135
BkgTheory_ggww_scale_ggf1j_HWW_H,-0.152215,0.971297,0.971297,0.0229922
ATLAS_JES_EtaIntercalibration_NonClosure_2018data_Rel21_H,-0.354323,0.784572,0.784572,-0.0229276
unconstr_norm_hh_vbf_0_Ztt_Htautau_H,0.978841,0.0809294,0.0809294,0.0229248
unconstr_norm_WW_1jet_PTH_60_120_GGF01J_HWW_channel_HComb,0.963493,0.204713,0.204713,0.0227712
gamma_stat_chan_ll__cat_vbf_0__sr_bin_6_Htautau_channel_HComb,0.940788,0.0640037,0.0640037,-0.0226843
ATLAS_JER_EffectiveNP_1_WW_Rel21_H,0.0669143,0.795545,0.795545,0.0222338
gamma_stat_chan_hh__cat_boost_0_1J__sr_bin_21_Htautau_channel_HComb,1.01219,0.066882,0.066882,0.0222226
ATLAS_JER_EffectiveNP_8_Rel21_H,0.374787,0.712589,0.712589,0.0220353
gamma_stat_chan_hh__cat_boost_0_1J__sr_bin_12_Htautau_channel_HComb,1.00812,0.0136233,0.0136233,0.0218044
gamma_stat_chan_hh__cat_boost_2_ge1J__sr_bin_11_Htautau_channel_HComb,0.992447,0.0216839,0.0216839,-0.0214477
ATLAS_ll_fake_SYST_njets_muon_Htautau_H,-1.03913,0.777329,0.777329,-0.0213604
unconstr_norm_WW_PTH_GT200_GGF2J_HWW_channel_HComb,0.563007,0.35347,0.35347,-0.0212327
TheorySig_ACC_HF_ggFH_HH,-0.206323,0.923731,0.923731,-0.021206
BkgTheory_z_mur_muf_envelope_hh_boost_0_2J_Htautau_H,-0.198446,0.880808,0.880808,0.0210352
unconstr_norm_ll_vh_1_Ztt_Htautau_H,1.10648,0.129467,0.129467,0.0208959
unconstr_norm_hh_boost_0_1J_Ztt_Htautau_H,1.05681,0.135467,0.135467,0.0207647
BkgTheory_wt_shower_vbf_HWW_H,0.183147,0.97215,0.97215,-0.0207448
gamma_stat_chan_hh__cat_boost_1_ge2J__sr_bin_15_Htautau_channel_HComb,1.00395,0.0186274,0.0186274,-0.0205252
gamma_stat_chan_hh__cat_boost_2_ge1J__sr_bin_12_Htautau_channel_HComb,0.990693,0.0286074,0.0286074,-0.0204706
ATLAS_lh_fake_closure_1prong_vh_Htautau_H,-0.653564,0.654133,0.654133,0.0204226
TheorySig_QCDscale_ggF_pTHj_pTH_H,0.0982309,0.763573,0.763573,-0.0200721
ATLAS_TAUS_TRUEHADTAU_SME_TES_MODEL_CLOSURE_Rel21_H,-0.279836,0.806919,0.806919,-0.019871
gamma_stat_chan_ll__cat_boost_1_ge2J__sr_bin_10_Htautau_channel_HComb,1.00262,0.0277625,0.0277625,-0.0196601
gamma_stat_chan_hh__cat_boost_1_ge2J__sr_bin_14_Htautau_channel_HComb,0.98717,0.0134154,0.0134154,-0.0195596
BkgTheory_z_mur_muf_envelope_hh_vh_1_Htautau_H,0.013172,0.979149,0.979149,-0.019531
BkgTheory_z_pdf_lh_vbf_0_Htautau_H,-0.345138,0.891006,0.891006,0.0195291
gamma_stat_chan_hh__cat_boost_0_1J__sr_bin_24_Htautau_channel_HComb,0.987647,0.0341794,0.0341794,0.0194736
gamma_stat_chan_hh__cat_boost_1_1J__sr_bin_26_Htautau_channel_HComb,0.987101,0.0358324,0.0358324,0.0194596
ATLAS_JER_EffectiveNP_6_Rel21,0.747661,0.591825,0.591825,0.0193422
gamma_stat_chan_ll__cat_boost_1_ge2J__sr_bin_8_Htautau_channel_HComb,0.99656,0.0185227,0.0185227,-0.0193041
BkgTheory_top_isr_Htautau_H,0.175558,0.746951,0.746951,-0.0191711
ATLAS_lh_fake_closure_1prong_boost_Htautau_H,-0.150915,0.745624,0.745624,-0.0190509
unconstr_norm_WW_1jet_PTH_GT200_GGF01J_HWW_channel_HComb,1.00045,0.263037,0.263037,0.0189295
BkgTheory_ACC_PS_ttbar_HadHad_HH,0.0305437,0.897837,0.897837,0.0186969
unconstr_norm_ttbar_bbtautau_HH,0.973094,0.0359357,0.0359357,-0.0184569
ATLAS_MET_SoftTrk_ResoPerp_WW_Rel21_H,-0.111473,0.887368,0.887368,0.0184356
gamma_stat_chan_hh__cat_boost_0_1J__sr_bin_9_Htautau_channel_HComb,0.993276,0.0194636,0.0194636,-0.0183722
ATLAS_bbtautau_subtr_bkg_HH,0.189009,1.03207,1.03207,-0.0183684
gamma_stat_chan_ll__cat_boost_1_ge2J__sr_bin_11_Htautau_channel_HComb,1.00504,0.0364575,0.0364575,-0.0183365
TheorySig_QCDscale_ggF_highpTH_H,0.795179,0.940794,0.940794,0.0183112
BkgTheory_shape_z_mur_muf_envelope_lh_vh_0_Htautau_H,0.5901,0.927379,0.927379,-0.0182711
gamma_stat_chan_ll__cat_vbf_0__sr_bin_8_Htautau_channel_HComb,1.01687,0.0736533,0.0736533,-0.017999
gamma_stat_chan_ll__cat_vbf_0__sr_bin_5_Htautau_channel_HComb,0.964801,0.054305,0.054305,-0.0179405
unconstr_norm_hh_boost_0_ge2J_Ztt_Htautau_H,1.06021,0.0724611,0.0724611,0.017888
gamma_stat_GGF2J_SR_Mll1_PTH_0_200_bin_4_HWW_channel_HComb,1.00324,0.0198561,0.0198561,-0.0177291
ATLAS_JES_EffectiveNP_Modelling1_HH,-0.226709,0.93776,0.93776,0.0174635
BkgTheory_ww_QSF_vbf_HWW_H,0.185425,0.977995,0.977995,-0.0173817
BkgTheory_wt_matching_ggf2j_HWW_H,-0.0690879,0.789057,0.789057,0.0173309
unconstr_norm_Zhf_bbtautau_HH,1.40181,0.100762,0.100762,-0.0172079
gamma_stat_Region_BMin0_incJet1_distSMBDT_J2_Y2015_DLLOS_T2_SpcTauHH_L0_bin_2_bbtautau_channel_HHComb,1.0014,0.0129891,0.0129891,0.0171243
gamma_stat_GGF2J_SR_Mll1_PTH_0_200_bin_2_HWW_channel_HComb,1.00596,0.0281221,0.0281221,-0.0170764
gamma_stat_chan_ll__cat_boost_1_ge2J__sr_bin_5_Htautau_channel_HComb,0.99807,0.0160569,0.0160569,0.0170248
ATLAS_JER_EffectiveNP_3_Rel21_HH,0.284664,0.926484,0.926484,0.0169989
gamma_stat_GGF01J_SR_1j_DF_PTH_60_120_bin_1_HWW_channel_HComb,0.979217,0.0265379,0.0265379,-0.0169947
BkgTheory_z_pdf_lh_boost_0_2J_Htautau_H,0.387091,0.897845,0.897845,0.0169691
unconstr_norm_ll_vh_0_Ztt_Htautau_H,1.04078,0.0755719,0.0755719,0.0165873
ATLAS_JES_PU_Rho_Rel21,-0.120946,0.49116,0.49116,0.0165737
gamma_stat_GGF01J_SR_1j_DF_PTH_GT200_bin_3_HWW_channel_HComb,1.02811,0.0963895,0.0963895,-0.0165481
gamma_stat_Region_BMin0_incJet1_distSMBDT_J2_Y2015_DLLOS_T2_SpcTauHH_L0_bin_6_bbtautau_channel_HHComb,1.00244,0.0272003,0.0272003,-0.0164455
gamma_stat_chan_ll__cat_vbf_0__sr_bin_2_Htautau_channel_HComb,1.00983,0.0267706,0.0267706,0.0164347
gamma_stat_chan_hh__cat_boost_0_ge2J__sr_bin_15_Htautau_channel_HComb,0.991467,0.0221099,0.0221099,-0.0164338
unconstr_norm_top_PTH_GT200_VBF_HWW_channel_HComb,0.91869,0.21966,0.21966,0.0163978
BkgTheory_ww_CKKW_vbf_HWW_H,-0.106653,0.94922,0.94922,0.0163124
unconstr_norm_top_MJJ_350_700_PTH_0_200_VBF_HWW_channel_HComb,0.943087,0.26647,0.26647,0.0161637
ATLAS_TAUS_TRUEHADTAU_EFF_RECO_TOTAL_Rel21_H,-1.03788,0.332722,0.332722,-0.0160855
ATLAS_JES_EtaIntercalibration_TotalStat_Rel21_H,-0.00475071,0.946057,0.946057,0.0160191
BkgTheory_ztautau_generator_vbf_HWW_H,0.411381,0.839367,0.839367,0.0159933
ATLAS_TAUS_TRUEHADTAU_SME_TES_PHYSICSLIST_Rel21_HH,-0.329172,1.03851,1.03851,-0.0159249
unconstr_norm_Zjets_1jet_PTH_GT200_GGF01J_HWW_channel_HComb,1.12606,0.222078,0.222078,-0.0158815
gamma_stat_GGF2J_SR_Mll2_PTH_GT200_bin_5_HWW_channel_HComb,0.993292,0.0191928,0.0191928,-0.0158067
gamma_stat_chan_lh__cat_boost_1_1J__sr_bin_8_Htautau_channel_HComb,0.999644,0.00964977,0.00964977,-0.0156568
gamma_stat_chan_hh__cat_boost_2_ge1J__sr_bin_10_Htautau_channel_HComb,1.00823,0.0165405,0.0165405,-0.0155387
gamma_stat_chan_lh__cat_boost_0_ge2J__sr_bin_13_Htautau_channel_HComb,1.03431,0.0478465,0.0478465,-0.0152319
gamma_stat_chan_hh__cat_boost_2_ge1J__sr_bin_0_Htautau_channel_HComb,0.981927,0.0288565,0.0288565,0.015229
gamma_stat_chan_ll__cat_vbf_0__sr_bin_1_Htautau_channel_HComb,1.01622,0.0303858,0.0303858,0.015214
BkgTheory_shape_z_mur_muf_envelope_ll_boost_1_1J_Htautau_H,0.338811,0.796351,0.796351,-0.0151492
gamma_stat_chan_ll__cat_boost_1_ge2J__sr_bin_3_Htautau_channel_HComb,1.00161,0.0177106,0.0177106,0.0151316
gamma_stat_chan_ll__cat_vbf_0__sr_bin_11_Htautau_channel_HComb,0.946529,0.126581,0.126581,-0.0151292
ATLAS_EMBEDDING_MIGRATION_UNC_chan_hh__cat_vh_1__cr_ztt_Htautau_H,0.0100135,0.986168,0.986168,-0.0151094
gamma_stat_chan_lh__cat_vbf_1__cr_ztt_bin_0_Htautau_channel_HComb,0.985613,0.0323485,0.0323485,-0.0150804
gamma_stat_chan_hh__cat_boost_1_ge2J__sr_bin_16_Htautau_channel_HComb,1.00297,0.0228115,0.0228115,-0.0150162
gamma_stat_chan_hh__cat_boost_2_ge1J__sr_bin_13_Htautau_channel_HComb,1.00671,0.0388526,0.0388526,-0.0149217
TheorySig_UEPS_VBF_H,-0.406012,0.65487,0.65487,0.0148951
gamma_stat_chan_ll__cat_boost_1_ge2J__sr_bin_12_Htautau_channel_HComb,1.0036,0.0368938,0.0368938,-0.0148822
gamma_stat_GGF2J_SR_Mll2_PTH_0_200_bin_1_HWW_channel_HComb,1.00692,0.0157926,0.0157926,-0.0148744
gamma_stat_chan_hh__cat_vh_0__sr_bin_15_Htautau_channel_HComb,0.989833,0.030596,0.030596,0.014729
unconstr_norm_ll_boost_2_ge1J_Ztt_Htautau_H,0.959682,0.140088,0.140088,0.0147275
gamma_stat_chan_hh__cat_vh_0__sr_bin_14_Htautau_channel_HComb,0.995075,0.0234919,0.0234919,0.0146409
ATLAS_JER_EffectiveNP_9_Rel21_H,0.445366,0.722357,0.722357,-0.014619
gamma_stat_chan_lh__cat_boost_0_ge2J__sr_bin_14_Htautau_channel_HComb,1.01571,0.0474138,0.0474138,-0.0146085
gamma_stat_chan_lh__cat_vh_1__sr_bin_4_Htautau_channel_HComb,1.00552,0.0248463,0.0248463,0.0145973
TheorySig_QCDscale_ggF_pTH650_H,-0.220922,0.961977,0.961977,0.0145368
BkgTheory_z_pdf_lh_vh_0_Htautau_H,0.230742,0.822032,0.822032,0.0145151
gamma_stat_chan_hh__cat_boost_1_1J__sr_bin_25_Htautau_channel_HComb,0.969549,0.0365325,0.0365325,0.0144938
ATLAS_MET_SoftTrk_ResoPara_Rel21_H,0.425959,0.447384,0.447384,-0.0144604
gamma_stat_chan_lh__cat_boost_1_1J__sr_bin_11_Htautau_channel_HComb,1.00197,0.0163887,0.0163887,0.0144371
BkgTheory_ttbar_matching_ggf2j_HWW_H,-0.0723458,0.541056,0.541056,-0.0143894
gamma_stat_VBF_SR_MJJ_350_700_PTH_0_200_bin_0_HWW_channel_HComb,1.00161,0.0100386,0.0100386,-0.0142045
gamma_stat_chan_lh__cat_boost_0_ge2J__sr_bin_12_Htautau_channel_HComb,0.986679,0.0406795,0.0406795,-0.0141151
gamma_stat_chan_ll__cat_boost_0_1J__sr_bin_9_Htautau_channel_HComb,0.931205,0.06927,0.06927,0.0140775
gamma_stat_GGF01J_SR_1j_DF_PTH_GT200_bin_1_HWW_channel_HComb,0.965791,0.1067,0.1067,-0.0140691
unconstr_norm_Zjets_1jet_PTH_120_200_GGF01J_HWW_channel_HComb,1.10619,0.129652,0.129652,-0.0140534
gamma_stat_GGF01J_SR_1j_DF_PTH_60_120_bin_2_HWW_channel_HComb,0.997456,0.0196722,0.0196722,0.0140316
ATLAS_JES_PunchThrough_Rel21_H,0.0488088,0.983572,0.983572,-0.0140244
gamma_stat_chan_hh__cat_vh_1__sr_bin_4_Htautau_channel_HComb,0.996075,0.0411975,0.0411975,0.0140069
gamma_stat_chan_ll__cat_vh_0__sr_bin_1_Htautau_channel_HComb,0.990678,0.028272,0.028272,-0.0139821
unconstr_norm_lh_boost_1_1J_Ztt_Htautau_H,1.01138,0.145431,0.145431,0.0139256
BkgTheory_wt_matching_ggf1j_HWW_H,-0.336812,1.04081,1.04081,0.0138815
ATLAS_lh_fake_mc_subtr_1prong_boost_Htautau_H,-0.898615,0.683988,0.683988,-0.0138178
gamma_stat_chan_hh__cat_boost_1_1J__sr_bin_16_Htautau_channel_HComb,1.0132,0.0201781,0.0201781,0.0137699
gamma_stat_chan_lh__cat_boost_1_ge2J__sr_bin_14_Htautau_channel_HComb,0.990367,0.017528,0.017528,0.0137127
BkgTheory_ttbar_scale_ggf1j_HWW_H,0.0336817,1.10248,1.10248,0.0137091
ATLAS_MUON_ID_Rel21_H,-0.387689,0.962449,0.962449,0.0136674
gamma_stat_chan_lh__cat_boost_1_1J__sr_bin_0_Htautau_channel_HComb,0.955081,0.0438058,0.0438058,0.0135626
gamma_stat_chan_hh__cat_boost_1_ge2J__sr_bin_25_Htautau_channel_HComb,1.00103,0.0301095,0.0301095,-0.0135311
gamma_stat_chan_lh__cat_boost_1_1J__sr_bin_12_Htautau_channel_HComb,0.994232,0.0230004,0.0230004,0.0135208
BkgTheory_wt_interference_vbf_HWW_H,0.118128,1.01486,1.01486,-0.0135196
gamma_stat_chan_hh__cat_boost_0_1J__sr_bin_22_Htautau_channel_HComb,1.01589,0.0709432,0.0709432,0.0135123
unconstr_norm_hh_boost_1_1J_Ztt_Htautau_H,1.00417,0.159091,0.159091,0.0134877
gamma_stat_chan_hh__cat_boost_0_1J__sr_bin_11_Htautau_channel_HComb,1.01014,0.015752,0.015752,-0.0134666
BkgTheory_ACC_StopWt_TopInterference_HH,-0.314465,0.83624,0.83624,-0.0134235
gamma_stat_chan_ll__cat_vbf_0__sr_bin_9_Htautau_channel_HComb,1.01622,0.0719816,0.0719816,-0.0134024
unconstr_norm_hh_boost_2_ge1J_Ztt_Htautau_H,0.982381,0.145017,0.145017,0.0133969
BkgTheory_z_pdf_hh_boost_0_1J_Htautau_H,-0.544365,0.542988,0.542988,-0.0133943
ATLAS_FT_EFF_Eigen_B_0_HH,0.215224,0.934257,0.934257,-0.0132722
ATLAS_TAUS_TRUEHADTAU_EFF_TRIGGER_SYSTMU161718_Rel21_HH,-0.643668,0.93808,0.93808,-0.0132499
gamma_stat_chan_lh__cat_vh_0__sr_bin_16_Htautau_channel_HComb,0.996221,0.0361508,0.0361508,0.0131916
gamma_stat_chan_lh__cat_boost_1_ge2J__sr_bin_13_Htautau_channel_HComb,0.998417,0.014634,0.014634,0.0131898
gamma_stat_chan_ll__cat_vh_0__sr_bin_7_Htautau_channel_HComb,1.00226,0.0701884,0.0701884,0.013081
gamma_stat_chan_hh__cat_boost_1_1J__sr_bin_15_Htautau_channel_HComb,0.997603,0.0149636,0.0149636,0.0130629
gamma_stat_chan_hh__cat_vh_1__sr_bin_5_Htautau_channel_HComb,1.00106,0.0344743,0.0344743,0.0130146
gamma_stat_chan_lh__cat_vh_0__sr_bin_17_Htautau_channel_HComb,1.00067,0.0610138,0.0610138,0.0130118
BkgTheory_ttbar_matching_vbf_HWW_H,0.384811,0.965026,0.965026,-0.0129723
gamma_stat_chan_hh__cat_vh_0__sr_bin_10_Htautau_channel_HComb,1.00546,0.0128575,0.0128575,-0.0128332
gamma_stat_chan_hh__cat_boost_2_ge1J__sr_bin_14_Htautau_channel_HComb,1.04303,0.0573051,0.0573051,-0.0127757
ATLAS_TAUS_TRUEHADTAU_EFF_TRIGGER_SYSTMU161718_Rel21_H,-0.140803,0.825019,0.825019,0.0127334
BkgTheory_z_mur_muf_envelope_lh_vh_0_Htautau_H,0.127997,0.891385,0.891385,0.0126982
BkgTheory_z_pdf_ll_boost_1_1J_Htautau_H,0.715681,0.843432,0.843432,-0.0126549
gamma_stat_Region_BMin0_incJet1_distSMBDT_J2_Y2015_DLLOS_T2_SpcTauHH_L0_bin_4_bbtautau_channel_HHComb,0.986874,0.0200677,0.0200677,0.0126363
gamma_stat_chan_hh__cat_boost_2_ge1J__sr_bin_3_Htautau_channel_HComb,1.00096,0.0164555,0.0164555,0.0125761
unconstr_norm_top_1jet_PTH_60_120_GGF01J_HWW_channel_HComb,1.09492,0.443799,0.443799,-0.01252
BkgTheory_z_mur_muf_envelope_lh_boost_1_2J_Htautau_H,0.152521,0.837896,0.837896,0.012503
ATLAS_JES_EffectiveNP_Mixed1_H,-0.823355,0.704547,0.704547,-0.0124738
BkgTheory_ttbar_matching_ggf1j_HWW_H,-0.699181,1.90033,1.90033,0.0124465
gamma_stat_Region_BMin0_incJet1_distNN_J2_DSM_T2_SpcTauLH_Y2015_LTT0_L1_bin_9_bbtautau_channel_HHComb,0.999047,0.0283026,0.0283026,0.0124215
gamma_stat_Region_BMin0_incJet1_distSMBDT_J2_Y2015_DLLOS_T2_SpcTauHH_L0_bin_3_bbtautau_channel_HHComb,1.00894,0.0156727,0.0156727,0.012399
unconstr_norm_hh_boost_1_ge2J_Ztt_Htautau_H,1.04296,0.0947553,0.0947553,0.012389
gamma_stat_chan_hh__cat_boost_2_ge1J__sr_bin_2_Htautau_channel_HComb,0.995684,0.0253734,0.0253734,0.0123565
gamma_stat_chan_lh__cat_boost_1_ge2J__sr_bin_15_Htautau_channel_HComb,1.01137,0.0243503,0.0243503,0.0123363
gamma_stat_chan_hh__cat_vh_1__sr_bin_7_Htautau_channel_HComb,1.0076,0.0299004,0.0299004,0.0123126
gamma_stat_chan_lh__cat_vh_1__sr_bin_5_Htautau_channel_HComb,1.01417,0.0648512,0.0648512,0.012217
unconstr_norm_top_1jet_PTH_0_60_GGF01J_HWW_channel_HComb,1.10751,0.416986,0.416986,-0.012195
gamma_stat_chan_hh__cat_boost_0_ge2J__sr_bin_23_Htautau_channel_HComb,1.00882,0.0460828,0.0460828,-0.0121695
ATLAS_JER_EffectiveNP_5_Rel21_HH,0.00201708,0.958125,0.958125,0.0121276
BkgTheory_top_shower_Htautau_H,-0.0648392,0.685007,0.685007,-0.0119478
ATLAS_FT_EFF_Eigen_B_0_PFlowDL1rWP85Medium_H,-0.46718,0.740275,0.740275,-0.011857
gamma_stat_chan_hh__cat_boost_0_ge2J__sr_bin_16_Htautau_channel_HComb,1.01177,0.0447528,0.0447528,-0.0118237
gamma_stat_chan_ll__cat_boost_1_ge2J__sr_bin_2_Htautau_channel_HComb,0.985509,0.0267543,0.0267543,0.0117947
ATLAS_JES_EffectiveNP_Modelling1_H,0.225716,0.382766,0.382766,0.0117804
BkgTheory_ACC_ISR_ttbar_HH,0.278041,0.906377,0.906377,0.0116838
unconstr_norm_top_PTH_GT200_GGF2J_HWW_channel_HComb,0.993628,0.283851,0.283851,0.0116712
gamma_stat_chan_hh__cat_boost_2_ge1J__sr_bin_19_Htautau_channel_HComb,0.975841,0.0279922,0.0279922,-0.0116693
ATLAS_JES_EffectiveNP_Statistical6_H,-0.180526,0.945301,0.945301,-0.0116357
gamma_stat_chan_ll__cat_boost_0_1J__sr_bin_8_Htautau_channel_HComb,0.997392,0.0608972,0.0608972,0.0115828
ATLAS_hh_fake_ff_composition_highdeta_Htautau_H,-0.147236,0.938736,0.938736,0.0115305
ATLAS_MUON_SCALE_Rel21_H,0.0593954,1.00853,1.00853,-0.0115201
gamma_stat_chan_ll__cat_boost_2_ge1J__sr_bin_9_Htautau_channel_HComb,1.00235,0.0302728,0.0302728,-0.0115127
gamma_stat_chan_hh__cat_vh_1__sr_bin_6_Htautau_channel_HComb,0.991211,0.033286,0.033286,0.0115114
gamma_stat_chan_hh__cat_vh_0__sr_bin_26_Htautau_channel_HComb,1.02244,0.0590883,0.0590883,0.0115109
gamma_stat_chan_hh__cat_boost_0_ge2J__sr_bin_17_Htautau_channel_HComb,0.999371,0.0570562,0.0570562,-0.0114727
gamma_stat_chan_hh__cat_boost_0_1J__sr_bin_18_Htautau_channel_HComb,0.960463,0.0503442,0.0503442,-0.0114472
gamma_stat_chan_hh__cat_boost_1_1J__sr_bin_8_Htautau_channel_HComb,0.996518,0.0151501,0.0151501,0.0114271
gamma_stat_chan_ll__cat_vbf_0__sr_bin_0_Htautau_channel_HComb,1.01705,0.0431898,0.0431898,0.0114107
BkgTheory_ACC_PS_ttbar_LTT_HH,-0.107446,0.607575,0.607575,-0.011345
gamma_stat_chan_lh__cat_boost_1_1J__sr_bin_4_Htautau_channel_HComb,1.00316,0.0160845,0.0160845,0.0113394
gamma_stat_Region_BMin0_incJet1_distSMBDT_J2_Y2015_DLLOS_T2_SpcTauHH_L0_bin_7_bbtautau_channel_HHComb,0.980977,0.0317757,0.0317757,-0.0113111
unconstr_norm_Zjets_PTH_GT200_VBF_HWW_channel_HComb,0.832924,0.263148,0.263148,0.0112833
ATLAS_JES_BJES_Response_Rel21_HH,-0.257011,0.947694,0.947694,0.0112724
gamma_stat_chan_ll__cat_vbf_1__sr_bin_5_Htautau_channel_HComb,1.16197,0.201383,0.201383,-0.0112351
gamma_stat_chan_ll__cat_boost_2_ge1J__sr_bin_10_Htautau_channel_HComb,1.0016,0.035277,0.035277,-0.0111524
gamma_stat_chan_lh__cat_vh_0__sr_bin_15_Htautau_channel_HComb,0.987259,0.0268258,0.0268258,0.0111305
gamma_stat_Region_BMin0_incJet1_distNN_J2_DSM_T2_SpcTauLH_Y2015_LTT0_L1_bin_2_bbtautau_channel_HHComb,1.00066,0.00315319,0.00315319,-0.0110909
gamma_stat_Region_BMin0_incJet1_distSMBDT_J2_Y2015_DLLOS_T2_SpcTauHH_L0_bin_1_bbtautau_channel_HHComb,0.998742,0.0109562,0.0109562,-0.0110683
unconstr_norm_ll_boost_1_ge2J_Ztt_Htautau_H,1.01917,0.0852873,0.0852873,0.0109931
BkgTheory_z_ckk_Htautau_H,-0.00748478,0.880133,0.880133,0.010983
gamma_stat_chan_lh__cat_boost_2_ge1J__sr_bin_10_Htautau_channel_HComb,1.00043,0.0134558,0.0134558,0.0109025
unconstr_norm_hh_boost_3_ge1J_Ztt_H,0.978232,0.187546,0.187546,0.0109018
ATLAS_lh_fake_FF_W_1prong_stat_vh_Htautau_H,-0.416213,0.928015,0.928015,0.0108668
ATLAS_JES_Flavor_Comp_Rel21_HH,-0.09369,0.979591,0.979591,-0.0108211
BkgTheory_z_pdfset_Htautau_H,0.0299332,0.98039,0.98039,0.0107219
BkgTheory_ttbar_fsr_ggf2j_HWW_H,-0.255838,0.80343,0.80343,-0.0107098
gamma_stat_chan_ll__cat_boost_0_1J__sr_bin_10_Htautau_channel_HComb,0.97666,0.0672355,0.0672355,0.0106757
gamma_stat_chan_hh__cat_boost_1_ge2J__sr_bin_17_Htautau_channel_HComb,1.01359,0.03079,0.03079,-0.0106738
gamma_stat_VBF_SR_MJJ_700_1000_PTH_0_200_bin_0_HWW_channel_HComb,0.997726,0.0165549,0.0165549,0.0106677
BkgTheory_wt_shower_ggf1j_HWW_H,0.651047,0.977019,0.977019,-0.0106632
gamma_stat_chan_hh__cat_boost_1_1J__sr_bin_24_Htautau_channel_HComb,1.03308,0.0403626,0.0403626,0.0106624
BkgTheory_ggww_scale_vbf_HWW_H,0.23716,1.04718,1.04718,-0.0106142
ATLAS_PRW_DATASF_Rel21_H,0.154159,0.869598,0.869598,-0.0106122
gamma_stat_chan_hh__cat_vh_0__sr_bin_11_Htautau_channel_HComb,0.997987,0.0127536,0.0127536,-0.0106115
gamma_stat_chan_lh__cat_boost_1_1J__sr_bin_3_Htautau_channel_HComb,1.00464,0.0203727,0.0203727,0.0105565
gamma_stat_chan_hh__cat_boost_2_ge1J__sr_bin_15_Htautau_channel_HComb,0.971937,0.0499544,0.0499544,-0.0104831
BkgTheory_ACC_StopWt_PS_HH,-0.321354,0.977008,0.977008,-0.01047
gamma_stat_chan_ll__cat_vbf_0__sr_bin_10_Htautau_channel_HComb,1.03053,0.0742889,0.0742889,-0.0104636
ATLAS_MUON_SAGITTA_RHO_Rel21_H,0.25275,0.936986,0.936986,-0.010443
ATLAS_lh_fake_closure_3prong_vh_Htautau_H,-0.320953,0.902277,0.902277,-0.0103865
gamma_stat_GGF2J_SR_Mll2_PTH_0_200_bin_2_HWW_channel_HComb,1.0041,0.0152903,0.0152903,0.0103685
BkgTheory_z_pdf_hh_boost_1_2J_Htautau_H,0.390294,0.826112,0.826112,0.0103554
gamma_stat_chan_lh__cat_vh_1__sr_bin_6_Htautau_channel_HComb,0.978846,0.0872261,0.0872261,0.0103164
ATLAS_JES_Flavor_Comp_Rel21_H,-0.502493,0.614165,0.614165,0.0102645
BkgTheory_ACC_ME_ttbar_HH,0.901084,0.744282,0.744282,-0.0102617
BkgTheory_z_pdf_lh_boost_1_1J_Htautau_H,0.455875,0.828596,0.828596,0.0102306
gamma_stat_chan_lh__cat_boost_0_ge2J__sr_bin_11_Htautau_channel_HComb,1.00037,0.0185691,0.0185691,-0.0102168
unconstr_norm_top_1jet_PTH_120_200_GGF01J_HWW_channel_HComb,1.06788,0.420752,0.420752,-0.0102026
gamma_stat_VBF_SR_MJJ_700_1000_PTH_0_200_bin_3_HWW_channel_HComb,0.847632,0.213921,0.213921,0.0101995
gamma_stat_chan_lh__cat_boost_2_ge1J__sr_bin_6_Htautau_channel_HComb,0.999963,0.01032,0.01032,-0.0101915
TheorySig_QCDscale_ggF_mig12_H,0.00981131,0.853372,0.853372,-0.0101605
gamma_stat_chan_lh__cat_vbf_0__sr_bin_7_Htautau_channel_HComb,1.00107,0.0167729,0.0167729,-0.0100582
BkgTheory_SysttbarNorm_L0_resolved_VHbb_H,0.33957,0.413777,0.413777,-0.0100561
BkgTheory_z_pdf_hh_boost_0_2J_Htautau_H,0.1052,0.959215,0.959215,-0.010052
gamma_stat_Region_BMin0_incJet1_distSMBDT_J2_Y2015_DLLOS_T2_SpcTauHH_L0_bin_8_bbtautau_channel_HHComb,1.00851,0.0396361,0.0396361,-0.0100429
