np,center,left,right,correlation
ATLAS_LUMI_2015_2018_H,-0.372264,-0.931751,+0.931751
ATLAS_MSS_lhchcMass_H,0.2296,-0.762156,+0.762156
ATLAS_PRW_DATASF_Rel21_H,0.138843,-0.867717,+0.867717
ATLAS_PH_EFF_ID_Uncertainty_H,0.134747,-0.972688,+0.972688
ATLAS_PH_EFF_ISO_Uncertainty_H,0.126362,-0.974741,+0.974741
ATLAS_PH_EFF_TRIGGER_Uncertainty_H,0.080741,-0.986903,+0.986903
ATLAS_EG_RESOLUTION_ALL_H,0.338316,-0.939296,+0.939296
ATLAS_EL_EFF_ID_TOTAL_1NPCOR_PLUS_UNCOR_H,-0.0115474,-0.910225,+0.910225
ATLAS_EL_EFF_ISO_TOTAL_1NPCOR_PLUS_UNCOR_H,0.682388,-0.954667,+0.954667
ATLAS_EL_EFF_RECO_TOTAL_1NPCOR_PLUS_UNCOR_H,0.115126,-0.983582,+0.983582
ATLAS_EL_EFF_TRIG_TOTAL_1NPCOR_PLUS_UNCOR_H,9.57888e-07,-0.993362,+0.993362
ATLAS_MUON_EFF_ISO_STAT_Rel21_H,0.00488024,-0.99426,+0.99426
ATLAS_MUON_EFF_ISO_SYS_Rel21_H,-0.505442,-0.864824,+0.864824
ATLAS_MUON_EFF_RECO_STAT_LOWPT_Rel21_H,0.00482993,-0.994092,+0.994092
ATLAS_MUON_EFF_TrigStatUncertainty_Rel21_H,-0.00310944,-0.99336,+0.99336
ATLAS_MUON_EFF_TrigSystUncertainty_Rel21_H,0.213916,-0.900055,+0.900055
ATLAS_MUON_ID_Rel21_H,-0.380604,-0.962369,+0.962369
ATLAS_MUON_MS_Rel21_H,-0.221286,-0.906613,+0.906613
ATLAS_MUON_SAGITTA_RESBIAS_Rel21_H,0.29089,-0.82294,+0.82294
ATLAS_MUON_SCALE_Rel21_H,0.055084,-1.00776,+1.00776
ATLAS_TAUS_TRUEELECTRON_EFF_ELEBDT_STAT_Rel21_H,0.00806366,-0.98297,+0.98297
ATLAS_TAUS_TRUEELECTRON_EFF_ELEBDT_SYST_Rel21_H,0.0551272,-0.992535,+0.992535
ATLAS_TAUS_TRUEHADTAU_EFF_ELEOLR_TOTAL_Rel21_H,-0.0059927,-0.993366,+0.993366
ATLAS_TAUS_TRUEHADTAU_EFF_RECO_TOTAL_Rel21_H,-1.03943,-0.33279,+0.33279
ATLAS_TAUS_TRUEHADTAU_EFF_RNNID_1PRONGSTATSYSTPTGE40_Rel21_H,-0.0163882,-0.946689,+0.946689
ATLAS_TAUS_TRUEHADTAU_EFF_RNNID_HIGHPT_Rel21_H,-0.000631444,-0.993364,+0.993364
ATLAS_TAUS_TRUEHADTAU_EFF_RNNID_SYST_Rel21_H,-0.296923,-0.966372,+0.966372
ATLAS_TAUS_TRUEHADTAU_EFF_TRIGGER_STATDATA161718_Rel21_H,0.0296526,-0.968049,+0.968049
ATLAS_TAUS_TRUEHADTAU_EFF_TRIGGER_STATDATA2018_Rel21_H,0.0334355,-0.960537,+0.960537
ATLAS_TAUS_TRUEHADTAU_EFF_TRIGGER_SYSTMU161718_Rel21_H,-0.135039,-0.824821,+0.824821
ATLAS_TAUS_TRUEHADTAU_SME_TES_INSITUEXP_Rel21_H,0.344033,-0.808093,+0.808093
ATLAS_TAUS_TRUEHADTAU_SME_TES_INSITUFIT_Rel21_H,-0.162814,-0.511362,+0.511362
ATLAS_TAUS_TRUEHADTAU_SME_TES_MODEL_CLOSURE_Rel21_H,-0.288303,-0.806012,+0.806012
ATLAS_TAUS_TRUEHADTAU_SME_TES_PHYSICSLIST_Rel21_H,0.284355,-0.766049,+0.766049
ATLAS_JER_DataVSMC_Rel21_H,-0.289244,-0.6951,+0.6951
ATLAS_JER_EffectiveNP_10_Rel21_H,0.370968,-0.86415,+0.86415
ATLAS_JER_EffectiveNP_11_Rel21_H,0.00105405,-0.774396,+0.774396
ATLAS_JER_EffectiveNP_12restTerm_Rel21_H,-0.572466,-0.810608,+0.810608
ATLAS_JER_EffectiveNP_1_Rel21_H,0.636399,-0.404834,+0.404834
ATLAS_JER_EffectiveNP_2_Rel21_H,-0.27631,-0.411788,+0.411788
ATLAS_JER_EffectiveNP_3_Rel21_H,0.371655,-0.559834,+0.559834
ATLAS_JER_EffectiveNP_4_Rel21_H,0.608546,-0.545026,+0.545026
ATLAS_JER_EffectiveNP_5_Rel21_H,0.853469,-0.59058,+0.59058
ATLAS_JER_EffectiveNP_6_Rel21_H,0.819656,-0.585379,+0.585379
ATLAS_JER_EffectiveNP_7_Rel21_H,-0.169578,-0.891517,+0.891517
ATLAS_JER_EffectiveNP_8_Rel21_H,0.375878,-0.712406,+0.712406
ATLAS_JER_EffectiveNP_9_Rel21_H,0.456187,-0.704027,+0.704027
ATLAS_JES_BJES_Response_Rel21_H,1.02012,-0.743261,+0.743261
ATLAS_JES_EffectiveNP_Detector1_H,0.102628,-0.958738,+0.958738
ATLAS_JES_EffectiveNP_Detector2_H,-0.0499376,-0.983512,+0.983512
ATLAS_JES_EffectiveNP_Mixed1_H,-0.825541,-0.705335,+0.705335
ATLAS_JES_EffectiveNP_Mixed2_H,0.642443,-0.881613,+0.881613
ATLAS_JES_EffectiveNP_Mixed3_H,0.0417961,-0.998239,+0.998239
ATLAS_JES_EffectiveNP_Modelling1_H,0.215563,-0.381081,+0.381081
ATLAS_JES_EffectiveNP_Modelling2_H,0.636175,-0.96057,+0.96057
ATLAS_JES_EffectiveNP_Modelling3_H,0.319726,-0.913492,+0.913492
ATLAS_JES_EffectiveNP_Modelling4_H,0.0028161,-0.960897,+0.960897
ATLAS_JES_EffectiveNP_Statistical1_H,0.215879,-0.984234,+0.984234
ATLAS_JES_EffectiveNP_Statistical2_H,0.401336,-0.952888,+0.952888
ATLAS_JES_EffectiveNP_Statistical3_H,-0.197687,-0.989412,+0.989412
ATLAS_JES_EffectiveNP_Statistical4_PFlow_H,-0.00419991,-0.979495,+0.979495
ATLAS_JES_EffectiveNP_Statistical5_H,-0.334803,-0.924805,+0.924805
ATLAS_JES_EffectiveNP_Statistical6_H,-0.185894,-0.945259,+0.945259
ATLAS_JES_EtaIntercalibration_Modelling_Rel21_H,-0.642927,-0.553398,+0.553398
ATLAS_JES_EtaIntercalibration_NonClosure_2018data_Rel21_H,-0.350744,-0.784288,+0.784288
ATLAS_JES_EtaIntercalibration_NonClosure_highE_Rel21_H,-0.170825,-0.992004,+0.992004
ATLAS_JES_EtaIntercalibration_NonClosure_negEta_Rel21_H,0.0787695,-0.993019,+0.993019
ATLAS_JES_EtaIntercalibration_NonClosure_posEta_Rel21_H,-0.197419,-0.986898,+0.986898
ATLAS_JES_EtaIntercalibration_TotalStat_Rel21_H,-0.00233706,-0.947937,+0.947937
ATLAS_JES_Flavor_Comp_Rel21_H,-0.51401,-0.619307,+0.619307
ATLAS_JES_Flavor_Resp_Rel21_H,0.360945,-0.382521,+0.382521
ATLAS_JES_PU_OffsetMu_Rel21_H,-0.23782,-0.562415,+0.562415
ATLAS_JES_PU_OffsetNPV_Rel21_H,-0.223895,-0.71116,+0.71116
ATLAS_JES_PU_PtTerm_Rel21_H,0.78574,-0.763037,+0.763037
ATLAS_JES_PU_Rho_Rel21_H,-0.058152,-0.499058,+0.499058
ATLAS_JES_PunchThrough_Rel21_H,0.0458051,-0.983243,+0.983243
ATLAS_JET_SingleParticle_HighPt_Rel21_H,0.130056,-0.983709,+0.983709
ATLAS_JVT_Rel21_H,-0.0951483,-0.89845,+0.89845
ATLAS_fJVT_Rel21_H,-0.309938,-0.697091,+0.697091
ATLAS_MET_SoftTrk_ResoPara_Rel21_H,0.424064,-0.446129,+0.446129
ATLAS_MET_SoftTrk_ResoPerp_Rel21_H,0.225728,-0.482871,+0.482871
ATLAS_MET_SoftTrk_Scale_Rel21_H,-0.0224697,-0.598747,+0.598747
TheorySig_BR_HiggsDecayWidthTHU_hbb_H,-0.0439466,-0.992038,+0.992038
TheorySig_BR_HiggsDecayWidthTHU_hVV_H,0.0409557,-0.991876,+0.991876
TheorySig_BR_HiggsDecayWidthTHU_hgg_H,-0.0221441,-0.992261,+0.992261
TheorySig_BR_HiggsDecayWidthTHU_htautau_H,-0.0295557,-0.992569,+0.992569
TheorySig_BR_HiggsDecayWidthTHU_hyy_H,0.0836735,-0.985205,+0.985205
TheorySig_BR_param_mB_H,-0.150134,-0.977758,+0.977758
TheorySig_BR_param_mC_H,-0.0127627,-0.992994,+0.992994
TheorySig_QCDalphaS_H,0.037096,-0.944111,+0.944111
